firstName,lastName,mobile,email,dob,proxy,cardNo,idType,idNumber
Sanjay,Roshan,8018911101,hrk.retest7@gmail.com,30-03-1992,743155,xxxx,aadhaar,5.62E+11
Damodar,Dhoni,8009881101,mstest7767@gmail.com,30-03-1993,743156,xxxx,drivers_id,2.34E+12
