5072;BHRPK3302G;KALPAVRUKSHA HARDWARES;102200301000051;VIJ-BASAVAPATNA KARNATAKA;PROPRITER:- KUMAR K S   KANANAKOPPULU;RAMNATHPURA  ARKALGUD TQ, HASSAN DIST;HASSAN     ;KARNATAKA ;10220;573133;9731314888;NULL
5814;ABVPR6701P;TOP IN TOWN DELUXE;102500301000139;VIJ-RAMDEVGALLI BELGAUM;WESTERN TOWER, KIRLOSKAR ROAD;BELGAUM;BELGAUM    ;KARNATAKA ;10250;590002;9448112121;NULL
5311;ABCDE1234F;JAWAHAR AGENCY;102506210260001;VIJ-RAMDEVGALLI BELGAUM;2034 GANAPAT BURUD  GALLI BELGAUM;BELGAUM;BELGAUM    ;KARNATAKA ;10250;590001;9880757862;NULL
5722;AIAPM0634J;GANESH STORS;102900300000184;VIJ-BELTHANGADI KARNATAKA;GANESH STORES,4-49, M S TOWERS;MAIN ROAD BELTHANGADY,BELTHANGADY TALUK;BELTHANGADI,KARNATAKA;KARNATAKA ;10290;574214;9945492039;MALLYAGANU09@YAHOO.COM
5814;ABYPS2592L;HOTEL RAMPRASAD;103800551000001;VIJ-BRIGADE ROAD BANGALORE;NO 123;BRIGADE ROAD;BANGALORE  ;KARNATAKA ;10380;560025;9886520678;NULL
5921;ASIPK7540C;KARNATAKA SPIRIT WORLD;104006041000004;VIJ-BYATARAYANAPURA BANGALORE;#5 LAV ARCADE 12TH CROSS;BELLARY MAIN ROAD GANGANAGAR;BANGALORE  ;KARNATAKA ;10400;560032;9980999096;NULL
5999;AFZPN4851N;VAISHNAVI ENTERPRISES;104006261000003;VIJ-BYATARAYANAPURA BANGALORE;#2 2ND MAIN ROAD;SURABHI LAYOUT YELAHANKA;BANGALORE  ;KARNATAKA ;10400;560064;9980999096;NULL
7011;ABCDE1234F;HERAMBA COMFORTS;104700541000004;VIJ-CITY MANGALORE MANGALORE;HERAMBA COMFORTS REB COMPLEX;3RD FLOOR THOKKOTTU MANGALORE;MANGALORE  ;KARNATAKA ;10470;575021;9738928111;RITHESHSHETTY009@YAHOO.COM
7299;AABFR6616A;SHREE RAMALEGESHWAR S.S.KEN DADDI;105007711000001;VIJ-DADDI KARNATAKA;AT&PO:DADDI;TA:HUKKERI  DIST:BELGAUM;DADDI,KARNATAKA      ;KARNATAKA ;10500;591254;9900362403;NULL
5942;AOVPP7589J;BOOKS AND BOOKS SALES;105100301000112;VIJ-LAMINGTON ROAD HUBLI;VIBHAV LAXMI PLAZA;KOPPIKAR ROAD;HUBLI      ;KARNATAKA ;10510;580020;9845027738;LEGALBOOKS@YAHOO.CO.IN
7298;AAGFN7843Q; N.R.R. HOSPITAL TRUST [R];105406011000037;VIJ-DASARAHALLI BANGALORE; N.R.R.HOSPITAL TRUST [R] HESARAGHATTA;MAIN ROAD CHIKKABANAVARA BANGALORE-90;BANGALORE  ;KARNATAKA ;10540;560090;9901985506;NULL
5511;AJGPS8470H; SARUR MOTORS;105800301000232;VIJ-DHARWAR MAIN KARNATAKA;PROP: SUNIL S SARUR;SHARDHA COMPLEX DHARWAD;DHARWAR,KARNATAKA    ;KARNATAKA ;10580;580008;9886054589;NULL
5411;AJGPS8470H;SRI SAI AGENCIES;105800301000265;VIJ-DHARWAR MAIN KARNATAKA;WORLD OF TITAN  PROP:SUNIL SARUR;OPP OLD BUS STAND,SUBHASH ROAD;DHARWAR,KARNATAKA    ;KARNATAKA ;10580;580008;9343364278;NULL
5812;AAMFA1693H;ASHOK BAR & RESTAURANT;105806210270004;VIJ-DHARWAR MAIN KARNATAKA;ASHOKA BAR & RESTAURANT;AKKI PETH NEAR CBT  DHARWAD;DHARWAR,KARNATAKA    ;KARNATAKA ;10580;580001;9986759177;ASHWIN_KABADI19@YAHOO.COM
7298;AAQFB1937P;B-LOUNGE UNISEX SALON & SPA;106200541000010;VIJ-FALNIR MANGALORE;B-LOUNGE UNISEX SALON & SPA 14-1-T41/14;1ST FLOOR ZUBEIDA KASSAM CHAMBERS KALANGALPAD;MANGALORE  ;KARNATAKA ;10620;575003;9980569993;NULL
5814;AEMPB0070M;BAY WATCH RESTAURANT & BAR;106500301000310;VIJ-GANGANAGAR BANGALORE;KULATHABETU HOUSE,;B. MOODA, BANTWAL TQ;MANGALORE  ;KARNATAKA ;10650;574219;9880010323;NULL
7230;AGIPA9991J;SANAUNISEX SALON;106500301000379;VIJ-GANGANAGAR BANGALORE;NO.476,HMT LAYOUT,5TH MAIN ROAD.;ANANDA NAGAR;BANGALORE  ;KARNATAKA ;10650;560024;9343351155;NULL
5811;ALCPS8402M;SIP & BITE  PRO PRASANTH SHETTY;106600301000147;VIJ-SANJAYNAGAR BANGALORE;117 1ST CROSS 5TH MAIN K E B LAYOUT;SANJAYANAGAR;BANGALORE  ;KARNATAKA ;10660;560094;9844113711;NULL
5732;AAQFB7697A;BATTERY  POWER  SOLUTIONS;106600301000425;VIJ-SANJAYNAGAR BANGALORE;# 6 A  BHOOPASANDRA MAIN ROAD;BHOOPASANDRA;BANGALORE  ;KARNATAKA ;10660;560094;9845021793;BATTERYPOWERSOLUTION@GMAIL.COM
5812;ABHPN4212B;N S BAR &RESTAURANT;106607711000014;VIJ-SANJAYNAGAR BANGALORE;NO 16/3 DASARHALLI MAIN ROAD;BHUVANESHWARINAGAR BANGALORE;BANGALORE  ;KARNATAKA ;10660;560094;9880938706;NULL
7011;ABCDE1234F;U.D.RESIDENCY PRIVATE LTD.;107600300001130;VIJ-HANUMANTNAGAR BANGALORE;NO.19/2 .1 ST MAIN  SOUTH END ROAD;BASAVANAGUDI        BANGALORE;BANGALORE  ;KARNATAKA ;10760;560004;9900900016;PRAKASHUD@YAHOO.COM
5814;AABFU6742Q;M/S UPAHARA DARSHINI;107600300001131;VIJ-HANUMANTNAGAR BANGALORE;NO.25/26,22ND CROSS 3RD BLOCK;JAYANAGAR           BANGALORE;BANGALORE  ;KARNATAKA ;10760;560011;9900900016;NULL
5812;AGGPD4981M;BLUE WINGS BAR & RESTAURANT;107600300001205;VIJ-HANUMANTNAGAR BANGALORE;NO.488 7TH MAIN     50 FEET ROAD;HANUMANTHANAGAR;BANGALORE  ;KARNATAKA ;10760;560019;9845731913;DEEPAK.BLUE16@GMAIL.COM
5814;AAHFT7354B;THE ROYAL TREAT;107600301000253;VIJ-HANUMANTNAGAR BANGALORE;THE ROYAL TREAT 19/2 SOUTH END MAIN RD;BASAVANAGUDI;BANGALORE  ;KARNATAKA ;10760;560050;9900900016;NULL
5812;ABVPP3092R;SAPTHAGIRI BAR & RESTAURANT;107607711000005;VIJ-HANUMANTNAGAR BANGALORE;PROP C PRAKASH      638 E, 80 FEET, ROAD,;2ND STAGE, RAJAJINAGAR,;BANGALORE  ;KARNATAKA ;10760;560010;9845022632;NULL
4722;BGDPG4389Q;SIDDHIVINAYAKA TOURS AND TRAVELS;107800301000028;VIJ-MALAVATHI KARNATAKA;SIDDHIVINAYAKA TOURS AND TRAVELS;SIRSI ROAD OPP VIJAYA BANK TQ SIDDAPUR;SIDDAPUR,KARNATAKA   ;KARNATAKA ;10780;581355;9481635828;NULL
5921;AACHN2664P;NANJU WINES PROP R. NANJUNDE GOWDA;109300301000111;VIJ-INFANTRY ROAD BANGALORE;NO.11/2 M K STREET;SHIVAJINAGAR BANGALORE;BANGALORE  ;KARNATAKA ;10930;560001;9844093417;NULL
5948;ALBPS4835K;M/S.S.S. LEATHER HOUSE.2;109600300001716;VIJ-JAYANAGAR BANGALORE;PROP.SUASINI A SHETTY,10/A.22ND CROSS;3RD BLOCK.JAYANAGAR BANGALORE;BANGALORE  ;KARNATAKA ;10960;560011;9845689338;SSLEATHER_2006@YAHOO.COM
5947;ANLPM5236G;COST TO COST;109600301000091;VIJ-JAYANAGAR BANGALORE;NO 39 11TH MAIN ROAD 4TH BLOCK;JAYANAGAR;BANGALORE  ;KARNATAKA ;10960;560011;9845331790;NULL
5912;ABCDE1234F;VIGNESH MEDICALS & GENERAL STORES;109700300000883;VIJ-COX TOWN BANGALORE;PRO/ VIJAYA         NO 15 KARIYANAPALYA;MAIN RD THOMAS TOWN BANGALORE;BANGALORE  ;KARNATAKA ;10970;560084;9845277100;NULL
5311;ABCDE1234F;BELAPU GRAMA PANCHAYATH;110401010003611;VIJ-KALATHUR KARNATAKA;BELAPU GRAMA PANCHAYATH;BELAPU POST;KALATHUR,KARNATAKA   ;KARNATAKA ;11040;574106;9880042066;NULL
5311;ABCDE1234F;RUMAN TRADERS;110406211000010;VIJ-KALATHUR KARNATAKA;RUMAN  TRADERS;SRI RAM COMPLEX  PANZYOOR ROAD POST UCHILA U;KALATHUR,KARNATAKA   ;KARNATAKA ;11040;574117;9620050535;NULL
4900;BJEPR8390A;SHREE SHAILA BHARATH GAS;110506261000002;VIJ-KALLADKA KARNATAKA;PROP-CHARISHMA RAI G-1-197/2;GOLTHAMAJAL VILLAGE KALLADKA BANTWAL TQ;BANTWAL;KARNATAKA ;11050;574297;9820768257;CHARISHMARAI@OUTLOOK.COM
5211;AEUPP3649G;TAJ DECO LINK;111106341000008;VIJ-KARKALA KARNATAKA;PROP: M GANAPATHI PAI, AIRPORT ROAD,;YEYYADI MANGALORE;MANGALORE  ;KARNATAKA ;11110;575008;9448624491;NULL
5814;AANFS2150A;SHASHWATHI ENT.(PORT OF PAVILION);111800300005306;VIJ-K G ROAD BANGALORE;0000/3.1STFLOOR     SUJATHA COMPLEX;1ST MAIN RD GANDHINAGAR  BANGALORE;BANGALORE  ;KARNATAKA ;11180;560009;9886740399;NULL
5812;AAYFS4573J;SAMRUDDHI ENTERPRISES;111800300005588;VIJ-K G ROAD BANGALORE;SIRUR PARK ROAD     SHESHADRIPURAM;BANGALORE;BANGALORE  ;KARNATAKA ;11180;560023;9886740399;NULL
8299;AABTV2116M;VIDYA SANSKAAR PRE UNIVERSITY COLLEGE;111800301000240;VIJ-K G ROAD BANGALORE;BEHIND POOJA HOSPITAL, MACHOHALLI GATE,;MAGADI MAIN ROAD, BANGALORE;BANGALORE  ;KARNATAKA ;11180;560091;9448882532;VIDYASANSKAAR@GMAIL.COM
8299;AABTV2116M;VIDYA SANSKAAR PUBLIC SCHOOL;111800301000248;VIJ-K G ROAD BANGALORE;BEHIND POOJA HOSPITAL,MACHOLLI GATE;MAGADU MAIN RD,BANGALORE;BANGALORE  ;KARNATAKA ;11180;560091;9448882532;NULL
5912;ATBPT1828M;J.R.P. TRADERS;112706211000015;VIJ-KORANGRAPADY KARNATAKA;PROPRIETOR TRIVENI, D.NO.1-80 C, JAIRAM KRIPA;-BUILDING, GUDDEANGADI, UDYAVARA.;UDUPI      ;KARNATAKA ;11270;574118;9880299127;NULL
5541;AAAFL4747P;LAXMI AUTO SERVICE;113006010260011;VIJ-KUMTA KARNATAKA;N. H. 17;ALVEKODI;KUMTA,KARNATAKA      ;KARNATAKA ;11300;581343;9448145338;NULL
5944;AADFC9614K;CRYSTAL TIMES;113900300001201;VIJ-MALLESHWARAM BANGALORE;N0.188 10TH CROSS;SAMPIGE RAOD, MALLESWARAM;BANGALORE  ;KARNATAKA ;11390;560003;9448203440;CRYSTALTIMES.BLR@GMAIL.COM
5944;AAHFC4172E;CRYSTAL TIMES II;113900301000256;VIJ-MALLESHWARAM BANGALORE;SHOP NO.UG-04, BRIGADE GATEWAY, NO. 26/1,;DR.RAJKUMAR ROAD, 80 FT ROAD, MALLESHWARAM;BANGALORE  ;KARNATAKA ;11390;560003;9448203440;CRYSTALFASTTRACK.BLR@GMAIL.COM
5661;AAKFM0885D;MILTON SHOES;113900301000311;VIJ-MALLESHWARAM BANGALORE;353/1 SRI MANJUNATHA   MANSION-10TH CROSS;SAMPIGE ROAD  MALLESWARAM;BANGALORE  ;KARNATAKA ;11390;560003;9886803535;NULL
7011;AAYFS2605K;THE MAURYA   RESIDENCY  (UNIT OF GAJANAN;114200300000645;VIJ-MANDI MOHALLA MYSORE;SRI HARSHA ROAD,;MYSORE;MYSORE     ;KARNATAKA ;11420;570001;9900666496;SANGROUP_HOTEL@YAHOO.COM
5814;BRZPS4426D  ;MILAN RESIDENCY;114600301000205;VIJ-MAYO HALL BANGALORE;#-44/6,3RD FLOOR,RESDENCY ROAD;BANGALORE-25;BANGALORE  ;KARNATAKA ;11460;560025;9945691717;NULL
7011;AADFH7742K;HILL DALE RESORTS;114700300000939;VIJ-MADIKERI KARNATAKA;MANGALA DEVI NAGAR,;MADIKERI TQ., KODAGU DIST.,;MADIKERI,KARNATAKA   ;KARNATAKA ;11470;571201;9343451316;NULL
8062;ALMPP0448E;MAHAVEER MEDICALCENTER;117706021000001;VIJ-PUTTUR MAIN KARNATAKA;PRP  DR,ASHOK PADIVAL .MAIN ROAD;PUTTUR;PUTTUR     ;KARNATAKA ;11770;574201;9449010956;NULL
5462;AACHH8229Q;GANGOTREE;117807951000001;VIJ-R C ROAD BANGALORE;4108,HIGH POINT     45,PALACE ROAD;PH-91802268484      BANGALORE;BANGALORE  ;KARNATAKA ;11780;560001;9448356848;NULL
7994;CYBPS5241Q;PLANTERS CLUB B;118601010004550;VIJ-SAKLESHPUR KARNATAKA;MR H S CHETHAN - PRESIDENT;MR B S ROHITH -  HON SECRETARY;SAKLESHPUR,KARNATAKA ;KARNATAKA ;11860;573134;9483526279;NULL
5921;AFMPK4245A;RASHMI WINES;118900301000171;VIJ-SANKEY ROAD BANGALORE;PROP : KRISHNAPPA H  NO 347 5TH MAIN ROAD;VYALIKAVAL;BANGALORE  ;KARNATAKA ;11890;560003;9986342680;NULL
8062;AALPP7906R;SHOBHA PHARMA PROP: SHOBHA PRAKASH;118906021000002;VIJ-SANKEY ROAD BANGALORE;NO 8 VI MAIN ROAD   5TH PHASE  NEW TOWN;YELAHANKA           BANGALORE;BANGALORE  ;KARNATAKA ;11890;560020;9845010929;SHOBHA217@GMAIL.COM
5983;AKZPM6179R;GLENICIA WOOD POLISHING INDUSTRIES;119706211000029;VIJ-SHIRVA KARNATAKA;PROPRITER MERELYN PRAMEELA MENEZES;BELMAN;BELMANNU,KARNATAKA   ;KARNATAKA ;11970;576111;9845309784;NULL
5921;ALUPG0519R;LAWRISMIN GOMEZ;120200301000409;VIJ-SOUTH END ROAD BANGALORE;NO 27 HARMONY ENCLAVE, 3RD CROSS #003;HATCHINS ROAD COXS TOWN BANGALORE;BANGALORE  ;KARNATAKA ;12020;560029;9591919830;NULL
5812;BFLPS7003A;DEEPAK  WINES;120300301000102;VIJ-SURATKAL MANGALORE;S/O BALAKRISHNA SHETTY, LALITHA HOUSE,;CHOKKABETTU, AGARAMELU ROAD;SURATKAL MANGALORE;KARNATAKA ;12030;575014;9845847991;NULL
5411;AAIFT4466F;TRENDZ;120900301000124;VIJ-GEN.CARIAPPA ROAD,TUMKUR;KMM COMPLEX;M G ROAD;TUMKUR,KARNATAKA     ;KARNATAKA ;12090;572101;9449807000;MOHANSTRENDZ@GMAIL.COM
7011;AABFK6998C;KRISHNA ENTERPRISES;121600301000705;VIJ-ULSOOR BANGALORE;2 AND 23 SWAMI VIVEKANANDA ROAD;MILK MAN STREET HALASURU BANGALORE;BANGALORE  ;KARNATAKA ;12160;560008;9844032330;NULL
5311;CWNPK9511R;S V M PROVISION STORES;121800301000118;VIJ-VIDYANAGAR BANGALORE;PROP KUMAR, OPP TO GANESH TEMPLE;NEAR DAIRY MILK CENTRE, CHIKKAJALA POST;BANGALORE  ;KARNATAKA ;12180;562157;9738233442;NULL
8062;AAATP1504C;PADMASHREE CHARITABLE TRUST (R);122000300001824;VIJ-VIJAYANAGAR BANGALORE;NO.23,80 FT ROADGURUKRIPA LAYOUT;NAGARABHAVI BANGALORE;BANGALORE  ;KARNATAKA ;12200;560072;9035016666;ACCOUNTSPGI@GMAIL.COM
5311;BAQPM8328G;ANJALI FLOWERS;122006211000052;VIJ-VIJAYANAGAR BANGALORE;#905,5TH MAIN A, VIJAYANAGAR;BANGALORE-560040;BANGALORE  ;KARNATAKA ;12200;560040;9164299667;ANJALIFLOWERS@YAHOO.COM
5912;ARRPS9386H;ARAVIND HOMOEO MEDICALS PROP.K.KANN;122007951000001;VIJ-VIJAYANAGAR BANGALORE;PROP.KAMALA KANNAN  NO.1/1,I ST FLOOR;14 TH MAIN.KODANDA  RAM TEMPLE BLORE;BANGALORE  ;NULL;12200;560040;9448294104;ARVINDHOMOEO@YAHOO.CO.IN
5814;FVCPS9839B;PILIKULA RESTUARANT;122300301000039;VIJ-VAMANJOOR MANGALORE;S/O SUDHARAMA SHETTY, # 3-66, YETHAMOGARU;DODDAMANE, KANDAVARA POST, MANGALORE TQ, D.K.;KAIKAMBA,KARNATAKA   ;KARNATAKA ;12230;574151;9845795531;NULL
5541;AAGFV0470K;VISHAL ENTERPRISES;124206211000002;VIJ-KUMBRA KARNATAKA;1-385  KUMBRA  ,VALAMOGARU VILLAGE;PUTTUR TALUK;KUMBRA,KARNATAKA     ;KARNATAKA ;12420;574258;9449386669;NULL
5812;AJYPK6316L;SRI RUDRESHWARA BAR &  RESTAURANT;124500300000533;VIJ-BANNERGHATTA BANGALORE;MADAPATNA, JIGANI HOBLI;ANEKAL TALUK;BANGALORE  ;KARNATAKA ;12450;560106;9845907416;NULL
5812;ALFPR5551B;GOKUL BAR  AND  RESTAURANT PROP RESHMA;124500301000217;VIJ-BANNERGHATTA BANGALORE;SY NO 576/ 17/1A 1P BASAVANAPURA BG ROAD;BANGALORE;BANGALORE  ;KARNATAKA ;12450;560083;9845907416;NULL
5812;AGSPB9627Q;SUMUKHA BAR & RESTAURANT PROP: V.BASAVARAJAIAH;124500301000223;VIJ-BANNERGHATTA BANGALORE;NO.693/12/3  KODIPALYA;KENGERI HOBLI;BANGALORE  ;KARNATAKA ;12450;560059;9448535344;NULL
5812;AJYPK6316L;V B R WINE PALACE PROP KANTHARAJA V;124500301000226;VIJ-BANNERGHATTA BANGALORE;NO 8/3 DEVARACHIKKANAHALLI BEGUR;BANGALORE;BANGALORE  ;KARNATAKA ;12450;560076;9845907416;NULL
5812;AHHPB7464R;S V WINES PROP BHASKARAN A;124500301000227;VIJ-BANNERGHATTA BANGALORE;S NO 107 1 DODDATHUGUR GRAMA BEGUR HOBLI;BANGALORE SOUTH;BANGALORE  ;KARNATAKA ;12450;560018;9448535344;NULL
5812;AJYPK6316L;GANESH HOTEL  PROP KANTHARAJU V;124500301000346;VIJ-BANNERGHATTA BANGALORE;#88/53/1 KEMPANAYAKANAHALLI;B G ROAD JIGANI [H] ANEKAL [TQ] B,LORE;BANGALORE  ;KARNATAKA ;12450;560083;9845907416;NULL
5812;AGSPB9627Q;S V HOTEL;124500301000366;VIJ-BANNERGHATTA BANGALORE;# 217/58/71 SRIRAMPURA VIL JIGANI HOBLI;ANEKAL TQ BANGALORE;BANGALORE  ;KARNATAKA ;12450;560083;9448535344;NULL
5813;ADEPV0706F;S V BAR & RESTAURANT;124500301000367;VIJ-BANNERGHATTA BANGALORE;PROP :V VEERANNA,NO.6/9,24;SHANKARNAG L.O.,GOTTIGERE,BANGALORE;BANGALORE  ;KARNATAKA ;12450;560083;9845116265;NULL
5651;AESPB1682D;BOHRA'S FASHION;124800300001702;VIJ-CITY MARKET BANGALORE;NO 76, AS CHAR STREET, 1ST CROSS, OPP-;LAL BUILDING,BLORE;BANGALORE  ;KARNATAKA ;12480;560053;9448710140;SANJAYBBOHRA@GMAIL.COM
5499;AMFPD2925E;PATEL METALS PROP SANTHOSH DEVI;124800301000452;VIJ-CITY MARKET BANGALORE;NO 60 BBMP PID NO 30-11-60 SHOP NO 03 GROUND;FLOOR A S CHAR STREETMANAGER RAMANNA LANE;BANGALORE  ;KARNATAKA ;12480;560053;9845355091;NULL
5732;ABXPN3302Q;KIRTHI ENTERPRISES;126100301000499;VIJ-GANDHI BAZAR BANGALORE;PROPRIETRIX: NANDA, NO.71,GANDHI BAZAAR MAIN;ROAD, BASAVANAGUDI, BANGALORE;BANGALORE  ;KARNATAKA ;12610;560004;9448087960;NULL
8062;ACJPH6009B; SHETTY EYE CLINIC;126600301000129;VIJ-KARWAR KARNATAKA;PROP DR. KAUSHIK HEGDE;,NO 544/1 GREEN STREET;KARWAR,KARNATAKA     ;KARNATAKA ;12660;581301;8197527400;NULL
5999;AABFA6474H;ADNAN ALLIED CONCERN;128500300001091;VIJ-N R ROAD BANGALORE;86, NARASIMHARAJA ROAD,BANGALORE;BANGALORE;BANGALORE  ;KARNATAKA ;12850;560002;9845039606;ADNANALCO@YAHOO.COM
5814;AAKPP0697G;SRI GURUSHREE WINES;129200301000308;VIJ-WHITEFIELD BANGALORE;#10,ITPL,NEAR PATTANDUR AGRAHARA MAIN ROAD;WHITFIELD,BANGALORE,KARKATAKA;BANGALORE  ;KARNATAKA ;12920;560066;9845475551;NULL
5541;ADGPR2302F;MARUTI FUELS;129906041000008;VIJ-S R RASTE SHIMOGA;PRP: D S RAVI KUMAR OPP:APMC YARD;SAGAR ROAD          SHIMOGA;SHIMOGA    ;KARNATAKA ;12990;577201;9448638230;NULL
5814;BLAPS5300K;H K S HOSPITALITY AND ENTERPRISES;130007751000001;VIJ-BIJAI MANGALORE;SANGEETHA APARTMENT FLAT NO.G . 2;OPP. CIRCUIT HOUSE KADRI;MANGALORE  ;KARNATAKA ;13000;575004;9845009585;SHETTY.HARSHISH@GMAIL.COM
5814;ABCDE1234F;SHREE DURGA ENTERPRISES;130100301000233;VIJ-INDIRANAGAR BANGALORE;NEXT TO ATR COMPLEX,2ND CROSS,;MURGESHPALYA, AIRPORT ROAD,;BANGALORE  ;KARNATAKA ;13010;560017;9731591109;NULL
8299;AWFPV3465M;GOECODE TECHNOLOGIES;130100301001028;VIJ-INDIRANAGAR BANGALORE;# 321 2ND FLOOR;CMH ROAD INDIRANAGAR 1ST STAGE;BANGALORE  ;KARNATAKA ;13010;560038;9986478158;SUDHA14VENKY@YAHOO.COM
5814;BLMPS0734F;SMILE MULTI CUSINE FAMILY RESTAURANT;130400301000095;VIJ-SARAKKI BANGALORE;NO 1365 28TH MAIN SOUTH END ROAD;JAYA NAGAR 9TH BLOCK  BANGALORE;BANGALORE  ;KARNATAKA ;13040;560069;9342910479;NULL
7011;AAECG4949H;GRAND CONTINENT HOTELS PVT  LTD;130400301000147;VIJ-SARAKKI BANGALORE;D-005  MANTRI  ELEGANCE;BANNERGHATTA ROAD   BANGALORE  78;BANGALORE  ;KARNATAKA ;13040;560078;9731837733;NULL
5251;ANUPC7430M;SRI DIAMOND HARDWARE AND ELECTRICALS;130500301000212;VIJ-GUNJUR BANGALORE;# 235/2, 219 GUNJUR MAIN ROAD;VARTHUR HOBLI BANGALORE;BANGALORE  ;KARNATAKA ;13050;560087;9448744867;NULL
5812;AFOPN9516P;M C BAR AND RESTAURANT;130500301000226;VIJ-GUNJUR BANGALORE;S/O LATE KRISHNA REDDY G,R,;NO 288/1 GUNJUR VARTHUR HOBLI GUNJUR;GUNJUR,BANGALORE     ;KARNATAKA ;13050;560087;9611548222;NULL
5611;ACXPT7071P;MAP ENTERPRISES;132600301000354;VIJ-K R PURAM BANGALORE;NO 14, LAKE SIDE HOUSE, GANGAMMA;TEMPLE STREET, V B LAYOUT K R PURAM;BANGALORE  ;KARNATAKA ;13260;560036;9632227440;SSALEEMMD@GMAIL.COM
5462;BOCPR2543N;SRI NIMISHAMBA CAKE PALACE;102200301000023;VIJ-BASAVAPATNA KARNATAKA;PROP:RANGASWAMY S P MAIN ROAD, BASAVAPATNA,;ARKALGUD, HASSAN.;BASAVAPATNA,KARNATAKA;KARNATAKA ;10220;573113;9591903400;NULL
5719;ARAPP2426N;PRAKASH CERAMICS;133106211000031;VIJ-TRINITY CIRCLE BR-BANGALOR;NO 647,RAMAGUNDANA HALLI,WHITE FIELD;MAIN ROAD;BANGALORE  ;KARNATAKA ;13310;560066;9916120060;NULL
5651;AAJHK2447N;MAHALAXMI DRESSES;133200541000007;VIJ-CHICKPET BANGALORE;MAHALAXMI DRESSES # 155,;CHICKPET MAIN ROAD, BANGALORE;BANGALORE  ;KARNATAKA ;13320;560053;9880940219;MAHALAXMIDRESSESMT@GMAIL.COM
5621;AORPK7866B;M/S MAHALAXMI  FASHION;133206041000011;VIJ-CHICKPET BANGALORE;NO 820 CHICKPET MAIN ROAD;BANGALORE 53;BANGALORE  ;KARNATAKA ;13320;560053;9880940219;KANCHICOMAHALAXMISILKS@GMAIL.COM
7230;AJIPM5437C;SONA  BEAUTY  SALOON;134800301000328;VIJ-HAL III STAGE BANGALORE;SONA BEAUTY SALOON #236 ALFA DIAMAND PLAZA;NEW THIPPASANDRA MAIN ROAD;BANGALORE  ;KARNATAKA ;13480;560075;9900810750;NULL
7298;AHQPR4844Q;BANGALORE GAMES AND FITNESS INSTITUTE;134800301000424;VIJ-HAL III STAGE BANGALORE;#143/1,  5TH MAIN ,  6TH CROSS,;MALLESHPALYA , BANGALORE;BANGALORE  ;KARNATAKA ;13480;560075;9886000755;RAVIREDDY@GMAIL.COM
5944;ACTPC8443N;SRI DHANALAKSHMI JEWELLERS;134800551000001;VIJ-HAL III STAGE BANGALORE;NO 338/A1  NEW THIPPASANDRA MAIN ROAD;HAL 3RD STAGE;BANGALORE  ;KARNATAKA ;13480;560075;9036111865;NULL
5999;AVPPC8922P;SRI RAJARAM STEEL CENTRE;135600301000062;VIJ-TURUVEKERE;PROP: SATHRA RAM CHOUDARY;OPP POORNIMA THEATRE MAYASANDRA ROAD;TURUVEKERE,KARNATAKA;KARNATAKA ;13560;572227;9035038742;NULL
5511;AEOPL5711R;S.R AUTOMOBILES PROP-LOKESH T R;136007711000008;VIJ-TIRUMALE KARNATAKA;S.R AUTOMOBILES # 57/3GOPALAKRISHNABUILDING;KOTTEGIPALYA BUS STOP BANGALORE 560091;MAGADI,KARNATAKA     ;KARNATAKA ;13600;562120;9342111534;NULL
8062;AEJPR4063F;JYOTHI HOSPITAL;137801011000189;VIJ-SULLIA KARNATAKA;PROP  DR.SADASHIVA RAO JYOTHI CIRCLE SULLIA;SULLIA TALUK;SULLIA, D K;KARNATAKA ;13780;574239;9740206411;SADASHIVA.DR@GMAIL.COM
5511;AAAFI8883P;INDIAN MOTORS;138006021000009;VIJ-YELAHANKA BANGALORE;LAKSHMI COMPLEX     B B ROAD;YELAHANKA           BANGALORE;BANGALORE  ;KARNATAKA ;13800;560064;9448473779;NULL
8062;AAATG0568K;G E F EYE HOSPITAL;138401011000960;VIJ-HOSKOTE KARNATAKA;AIR EXTN, OLD MADRAS ROAD,;NH-4,HOSKOTE;HOSKOTE,KARNATAKA    ;KARNATAKA ;13840;562114;9964067554;NULL
5999;AAJCM5913A;M PRO CONCRETES PRIVATE LIMITED;138500301000175;VIJ-M U D A MYSORE;#922 1ST MAIN ROAD KANTHARAJ;URS ROAD LAKSHMIPURA;MYSORE     ;KARNATAKA ;13850;570028;9448466515;NULL
7299;AAJCM5913A;M PRO CONCRETES PRIVATE LIMITED;138506211000050;VIJ-M U D A MYSORE;#922 1ST MAIN ROAD KANTHARAJ;URS ROAD LAKSHMIPURA;MYSORE     ;KARNATAKA ;13850;570028;9880009115;NULL
5944;DGOPK3735B;ND JEWELLERS;138800301000271;VIJ-VICTORIA ROAD BANGALORE;PROP:P KAMALESH NO 36/1 BAZAR STREET;NEELASANDRA BANGALORE;BANGALORE  ;KARNATAKA ;13880;560047;9019303021;NULL
4812;AEAPA3683F;CELL ACCESS;138806211000010;VIJ-VICTORIA ROAD BANGALORE;NO. B-3,AUSTIN PLAZA,;AUSTIN TOWN,;BANGALORE  ;KARNATAKA ;13880;560047;9886114063;NULL
5814;ABCDE1234F;NARAYANA VEG TREAT;139200301000262;VIJ-S S I BANGALORE;ADJACENT TO PLOT NO.257-A, SY.NO.237&238.;BOMMASANDRA   INDUSTRIAL AREA;BANGALORE  ;KARNATAKA ;13920;560099;9036299290;NULL
4722;ABCDE1234F;SREE VENKATESWA  TRAVELS;139400300000761;VIJ-KORAMANGALA BANGALORE;NO 8, 80FT ROAD,5TH BLOCK;KORAMANGALABANGALORE;BANGALORE  ;KARNATAKA ;13940;560095;9886108626;NULL
5655;ABCDE1234F;PRIME TIMES  3  SPORTS CAFE;139400301000270;VIJ-KORAMANGALA BANGALORE;1, CORNWEL ROAD;LANGFORD TOWN SHANTHINAGAR;BANGALORE  ;KARNATAKA ;13940;560027;9845159116;NULL
5541;ABQFS1966C;SRVS ENTERPRISES;139400301000448;VIJ-KORAMANGALA BANGALORE;FILLING STATION, #33, 17TH MAIN;5TH BLOCK, KORAMANGALA;BANGALORE  ;KARNATAKA ;13940;560095;9686264502;SURESH.SHETTY061@GMAIL.COM
5812;AATFM6439N;MOROSOR ENTERPRISES;139400301000554;VIJ-KORAMANGALA BANGALORE;107/2, 80FEET ROAD;4TH BLOCK  KORAMANGALA;BANGALORE  ;KARNATAKA ;13940;560034;9686264502;SURESH.SHETTY061@GMAIL.COM
5251;BIMPD2694A;NAVADURGA ENTERPRISES;139400301000606;VIJ-KORAMANGALA BANGALORE;NO45, 11TH A CROSS;14TH MAIN,VIRATNAGAR, BOMMANAHALLI;BANGALORE  ;KARNATAKA ;13940;560068;9448519122;NAVADURGA123@GMAIL.COM
5999;ACXFS9327F;SORTERZ;139400301000762;VIJ-KORAMANGALA BANGALORE;SORTERZ 102 3RD CROSS CHIKKU LAKSHMAIAH;LAYOUT BEHIND HOTEL LIBRA DRC POST BANGALORE;BANGALORE  ;KARNATAKA ;13940;560029;8867533535;NULL
4722;AAFCM0727Q;MASTERWORLD TRAVELS & FOREX PVT .LTD.;139406011000116;VIJ-KORAMANGALA BANGALORE;233, 4TH MAIN, 6TH CROSS, (N.G.E.F  LAYOUT);SADANANDA NAGAR, BANGALORE;BANGALORE  ;KARNATAKA ;13940;560034;9845958899;NULL
5812;AATFM6439N;MOROSOR ENTERPRISES;139407751000001;VIJ-KORAMANGALA BANGALORE;107/2, 80FEET ROAD;4TH BLOCK  KORAMANGALA;BANGALORE  ;KARNATAKA ;13940;560034;9686264502;SURESH.SHETTY061@GMAIL.COM
5719;ABYFS7868M;STUDIO CLAYTOPIA KORMANGALA BRANCH;139800301000173;VIJ-CORPORATE BANKING BANGALOR;11 SBI COLONY-80 FT ROAD,7TH CROSS;7TH MAIN ROAD 3RD BLOCK BANGALORE;BANGALORE  ;KARNATAKA ;13980;560038;9945581519;NULL
5814;AAEFT7412K;THE LITTLE ART VILLAGE OF BANGALORE-KORMANGALA BRANCH;139800301000174;VIJ-CORPORATE BANKING BANGALOR;#11 SBI COLONY, 80 FT ROAD, 7TH CROSS;7TH MAIN ROAD 3RD BLOCK KORMANGALA;BANGALORE  ;KARNATAKA ;13980;560038;9945581519;NULL
5812;ABUPL7176P;SRINIDHI BAR & RESTAURANT;139900301000161;VIJ-BILEKAHALLI BANGALORE;V.LAKSHMAN .PROP. # 74, 26, 1ST CROSS;PANDURANGANAR SAHYADRI LAYOUT BILEKAHALLI;BANGALORE  ;KARNATAKA ;13990;560076;9845142534;NULL
7011;AGAPS5761J;JAI MARUTHI WINES;139900301000162;VIJ-BILEKAHALLI BANGALORE;PROPRITOR :V.SRINIVAS #37 2ND FLOOR, DOLLAR;LAYOUT 2ND MAIN JP NAGAR 4TH PHASE;BANGALORE  ;KARNATAKA ;13990;560078;9845142534;NULL
5462;ABWFS0446F;S.N. ENTERPRISES;139900301000242;VIJ-BILEKAHALLI BANGALORE;JUST BAKE # 10 AREKERE GATE OPP DOMINOS PIZZA;BG ROAD BANGALORE;BANGALORE  ;KARNATAKA ;13990;560076;9538892276;AMBICALBSBOB@YAHOO.CO.IN
5311;AANFM1602R;MARUTHI STEEL TRADERS;140000300000854;VIJ-H B R LAYOUT BANGALORE;# 834/8,;BANASWADI MAIN ROAD,;BANGALORE  ;KARNATAKA ;14000;560043;9480215768;NULL
5814;AHFPG3108H;KARAVALI PARADISE;140000301000756;VIJ-H B R LAYOUT BANGALORE;PROP:VIJAY KUMAR, SAHAJANANDA NAGAR,ROJIPURA;WARD NO 4, KHATA #1725/1524/5013,DODABALLAPUR;BANGALORE  ;KARNATAKA ;14000;560043;9901693484;KUMARIVIJAYGOWDA@GMAIL.COM
8071;AMSPD2910Q;RAKSHYA MULTI SPECIALITY CLINIC AND DIAGNOSTIC CENTRE;140500541000012;VIJ-H S R LAY OUT;PROP: DHANANJAYA C D# 102, VIJAYA ICON APRT.;G FLOOR, HUSKUR GATE HOSUR ROAD, BANGALORE;BANGALORE  ;KARNATAKA ;14050;560078;9845747579;NULL
5532;ACRPS2236B;SLICK CARZ;140600301000369;VIJ-B T M LAYOUT BANGALORE;# 54, HOSUR MAIN ROAD;BOMMANAHALLI;BANGALORE  ;KARNATAKA ;14060;560068;9449865615;SLICKCARZ@YAHOO.COM
5651;AJUPV6976D;AARCHI FASHIONS;140706211000027;VIJ-GIRI NAGAR BRANCH, BANGALO;# 175/41, 22ND CROSS, 3RD BLOCK,;JAYANAGAR, BANAGLORE;BANGALORE  ;KARNATAKA ;14070;560011;9663116116;SALES@AARCHIFASHIONS.COM
5814;AHIPK1681L;SRIKRISHNA RESIDENCY;140900301000024;VIJ-SUBRAMANYA;VIDHYANAGARA, SUBRAHMANYA POST;SULLIA TQ, D.K;SUBRAMANYA;KARNATAKA ;14090;574238;9141331225;NULL
5699;BGDPS6527C;CHINNA BELLI HANNUKAYI HARAKE ANGADI;140900301000034;VIJ-SUBRAMANYA;PROPRIETOR: MR SHAILESH.B.N , D NO 2-516;ADI SUBRAHMANYA, KUKKE SUBRAHMANYA, SULLIA TQ;DAKSHINA KANNADA;KARNATAKA ;14090;574238;9481105357;NULL
5511;ACHPV2963L;SUKOVE AUTOMOBILES  PRO. VISHWANATHA RAO;141400301000430;VIJ-VIDYARANYAPURA, BANGALORE;NO 165 1 ST FLOOR 1 A CROSS  3 RD MAIN;6 TH BLOCK B E L LAY OUT V R PURA;BANGALORE  ;KARNATAKA ;14140;560097;9448005996;NULL
5999;CBWPM6092D;AAI MATHA FANCY STORE;141400301000569;VIJ-VIDYARANYAPURA, BANGALORE;VIDYARANYAPURA MAIN ROAD;DODDABOMMASANDRA, BANGALORE;BANGALORE  ;KARNATAKA ;14140;560097;9743256182;NULL
5944;ADPPL8055L;LOKESH  C.N.;141401011001182;VIJ-VIDYARANYAPURA, BANGALORE;S/O E. NANJUNDACHAR, C/O KALIKAMBA JEWELLARY;WORKS, S G ROAD, V M S BLDG, THINDLU VRPURA;BANGALORE  ;KARNATAKA ;14140;560097;9019440969;NULL
5999;AABTI2521H;ISLAMIC INFORMATION CENTRE BANGALORE;141601011002255;VIJ-R.T.NAGAR -BR-BANGALOR;#141 3RD MAIN KOUSAR NAGAR;RT NAGAR POST BANGALORE;BANGALORE  ;KARNATAKA ;14160;560032;9845289298;ZOHEBKHAN100@GMAIL.COM
7629;AKAPK6956D;S R TECHNOLOGIES;141800301000166;VIJ-J.P.NAGAR  BANGALORE;NO 49/2, KANAKAPURA MAIN ROAD, 7TH BLOCK,;JAYANAGAR, BANGALORE - 560070;BANGALORE  ;KARNATAKA ;14180;560070;9686576725;KAVITHARAGHU95@GMAIL.COM
8071;AONPS2978E;SUNITHA V KUMAR;141801011000605;VIJ-J.P.NAGAR  BANGALORE;# 266, 4TH MAIN, BRINDAVAN EXTENSION, ARKERE;MICO LAYOUT, B G ROAD;BANGALORE  ;KARNATAKA ;14180;560076;9341215303;DRVEERU@YAHOO.COM
5411;ABDFA2931L;APPLE MART;142000571000002;VIJ-KANKANADY BR MANGALORE;INLAND ARCADE,AIRPORT ROAD;PADAVINADY;MANGALORE  ;KARNATAKA ;14200;575004;7090726565;NULL
5651;AOWPA7257F;STITCH CRAFT;142007951000007;VIJ-KANKANADY BR MANGALORE;#19-3-52  OLD KENT ROAD PANDESHWARA;ALVA COTTAGE MANGALORE;MANGALORE  ;KARNATAKA ;14200;575001;9480532829;NULL
5311;AFOPN9516P;SRI VINAYAKA ENTERPRISES;143100301000010;VIJ-VARTHUR;S/O LATE KRISHNA REDDY G,R,;NO 288/1 GUNJUR VARTHUR HOBLI GUNJUR;GUNJUR,BANGALORE     ;KARNATAKA ;14310;560087;9611548222;GKNARAYANASWAMY1899@GMAIL.COM
5812;ARYPS5016P;SANTOSH BAR & RESTURANT;143100301000018;VIJ-VARTHUR;NO.184.SARJAPURA ROAD;VARTHUR;BANGALORE  ;KARNATAKA ;14310;560087;9980010727;NULL
8062;BTSPM5458E;SURAKSHA MULTI SPECIALITY HOSPITAL;143100301000324;VIJ-VARTHUR;BBMP KATHA NO 691/406/441,;GANDHI CIRCLE VARTHUR;BANGALORE  ;KARNATAKA ;14310;560087;9900044449;BHUMIBABU@YAHOO.CO.IN
5812;AEVPC7994N;MANU WINES G. P.A HOLDER PUSHPA .M.G.;144300301000268;VIJ-BANNERGHATTA BANGALORE;# 11/2, MYLASANDRA;KENGERI HOBLI;BANGALORE  ;KARNATAKA ;12450;560059;9845116265;NULL
8734;ABCDE1234F;MADHU DIAGNOSTIC CENTER;144600301000359;VIJ-CHANDAPURA BR - BANGALORE;NO 507/346 SATYANARAYANARAO BLDG;NEAR KEB CHANDAPURA BANGALORE;BANGALORE  ;KARNATAKA ;14460;560099;7411107300;NULL
5065;AGQPR9354L; ANAND ELECTRIC& HOME APPLIANCES;144800301000073;VIJ-MARATHAHALLI;#5,KRISHNA GRAND,BASEMENT SHOP,NEARSYNDICATE;-BANK,OUTERRING ROAD MARATHALLI;BANGALORE  ;KARNATAKA ;14480;560037;9886322771;NULL
8062;AZBPR7320L;DEEPIKA PHARMA & GENARAL STORES;144800301000171;VIJ-MARATHAHALLI;#565 SRINIVASA COMPLEX  RING ROAD;ATTACHED MAIN ROAD MARATHALLI;BANGALORE  ;KARNATAKA ;14480;560037;7829118084;NULL
5511;AMUPV1731F;VIJAYA MOTORS PROP. VISHWARADHYA S N;146200301000102;VIJ-MADANAYAKANAHALLI;SHRINIVASA PURA (V) YENTAGANAHALLI;NELAMANGALA BANGALORE;MADANAYAKANAHALLI, KARNATAKA;KARNATAKA ;14620;562123;9740781763;NULL
5732;AHHPP3706C;MAHALAKSHMI TELCOM PROP: ERESH PUROHIT;146200301000179;VIJ-MADANAYAKANAHALLI;NO-46, N.H-4,LAKSHMIPURA MAIN RD,M.N.HALLI;MADAVARA-POST, DASANPURA-HOBALI, B,LORE-56212;MADANAYAKANAHALLI, KARNATAKA;KARNATAKA ;14620;562123;7899994757;NULL
5511;AIKPH0568G;SUPREME TECHNOLOGIES PROP. HEMALATHA G M;146200301000186;VIJ-MADANAYAKANAHALLI;K# 29/30 NEAR MUNESHWARA TEMPLE, MADAVARA;DASANAPURA HOBLI BANGALORE NORTH;MADANAYAKANAHALLI, KARNATAKA;KARNATAKA ;14620;562123;9964623758;SUPREMETECHNOLOGY758@GMAIL.COM
5533;AIEPB8199H;M D CAR DECOR;148900301000053;VIJ-KODIGEHLLI,BANGALORE;#101 1ST MAIN 1ST CROSS VINAYAKA LAYOUT;HEBBAL KEMPAPURA BANGALORE NORTH H A FARM BAN;BANGALORE  ;KARNATAKA ;14890;560024;9845688345;NULL
7011;AGDPJ6990P;SRI KRISHNA'S SUITES;149100301000073;VIJ-BELLANDUR BRANCH;PROP. JAYACHANDRA SHETTY B K, #465/462/447/22;BELLANDUR CIRCLE, BANGALORE EAST TALUK;BANGALORE  ;KARNATAKA ;14910;560103;9731591109;ACCOUNTS@SKSUITES.COM
5712;CLNPS8287B;SHIVANSH HANDLOOMS;149106211000006;VIJ-BELLANDUR BRANCH;PROP. POONAM SRIVASTAVA, #396/1,;OPP HOLY FAMILY CHURCH, RAMAMURTHYNAGAR;BANGALORE  ;KARNATAKA ;14910;560016;9743533408;NULL
5311;AUWPG2097B;AGRO INDUSTRIES;151200301000013;VIJ-BILUGOLA;VC GAJESH S/O V R CHANDRU;BUILDING NR CORT K M ROAD HESGAL MUDIGERE;MUDIGERE,KARNATAKA   ;KARNATAKA ;15120;577132;9481476992;NULL
5814;BILPA4618N;AVINASHA G B;151701011000765;VIJ-CHIKKARASINAKERE;S/O BASAVEGOWDA , #450 , G D HALLI;MADDUR TQ  MANDYA DT;CHIKKARASINAKERE,KARNATAKA;KARNATAKA ;15170;571422;9535889563;NULL
5814;ABCDE1234F;RAGHU G M;151701011001450;VIJ-CHIKKARASINAKERE;S/O MAHADEV G B, #462, G D HALLI;MADDUR TQ  MANDYA DT;CHIKKARASINAKERE,KARNATAKA;KARNATAKA ;15170;571422;9844903479;NULL
5999;AIUPN1823C;SRI VEERABADRASHWARA AGRO TRADERS;152100301000001;VIJ-NERELAKERE;SRI VEERABHADRESHWARA AGRO TRADERS NERALAKERE;V/P ARAKERE HOBLI S R PATNA TQ MANDYA DIST;MANDYA     ;KARNATAKA ;15210;571415;9448642862;NULL
5598;BEJPM3068Q;MATHRUSHREE ENTERPRISES;152100301000009;VIJ-NERELAKERE;PROP: MALLESH, SHOP AT MAIN ROAD NERELAKERE; ARAKERE HOBLI S R PATNA TQ MANDYA DIST;NERELAKERE,KARNATAKA;KARNATAKA ;15210;571415;9980193897;NULL
5651;AAEFD8817E;DELHI READYMADE STORES;153100521000005;VIJ-GOKAK;NO. 936/B, MARKET ROAD, RAVIVAR PETH;GOKAK, DIST-BELGAUM;GOKAK,KARNATAKA;KARNATAKA ;15310;591307;9845861307;NULL
4900;AASFS7414A; SHISHIRA  FOODS &  FARMAS;153300301000006;VIJ-LAKAMANAHALLI BRANCH;NAVLOOR;DHARWAR;DHARWAR,KARNATAKA    ;KARNATAKA ;15330;580004;9448116302;SIDDESHWAR.RONAD@GMAIL.COM
5541;AHXPA2827K; DURGAMBA SERVICE STATION;153406041000001;VIJ-SRINGERI;PROPRIETOR: ANIL KUMAR GOWDA K S;BHARATHI STREET, SRINGERI;SRINGRI,KARNATAKA;KARNATAKA ;15340;577139;9448657355;NULL
5814;AAKFT1833C;THALASSERY RESTAURANT;154600301000021;VIJ-ELECTRONIC CITY GENNXT;NO 38 WHITE OBLONG BLDG NEELADRI MAIN RD;ELECTRONIC CITY NEELADRI NGR BLR;BANGALORE  ;KARNATAKA ;15460;560100;8861411100;NULL
5499;AGGPV8897C;NEW MARUTHI RICE TRADERS;154600301000100;VIJ-ELECTRONIC CITY GENNXT;PROP. VIJAY KUMAR M, NO.22 AND 23 OF;MUNEESHWARA LAYOUT, KUDLU MAIN ROAD, MADIWALA;BANGALORE  ;KARNATAKA ;15460;560168;9900563037;NULL
7011;ARDPS9101L;THE RASAGANGA  VEG;154600301000103;VIJ-ELECTRONIC CITY GENNXT;PROP. SUNDER SADANANDA SHETTY, NO-34,;BELLANDUR VARTHUR ROAD;BANGALORE  ;KARNATAKA ;15460;560037;9845655512;SSS_KGHS@YAHOO.COM
7011;AXXPS0748R;THE RASAGANGA  VEG;154600301000104;VIJ-ELECTRONIC CITY GENNXT;PROP. PREETHI S SHETTY,SY NO 89,T C HALLI GAT;DOMMASANDRA CIRCLE,SARJAPURA MAIN ROAD,ANEKAL;BANGALORE  ;KARNATAKA ;15460;562125;9845655512;SSS_KGHS@YAHOO.COM
5812;AALFT0774B;THALASSERY RESTAURANT;154600541000002;VIJ-ELECTRONIC CITY GENNXT;NO 52 SY NO 78/10 BELLANDUR;OUTER RING ROAD VARTHUR HOBLI;BANGALORE  ;KARNATAKA ;15460;560103;8861411100;NULL
5812;AAKFT1833C;THALASSERY RESTAURANT;154600541000003;VIJ-ELECTRONIC CITY GENNXT;NO 38 WHITE OBLONG BLDG NEELADRI MAIN RD;ELECTRONIC CITY NEELADRI NGR BLR;BANGALORE  ;KARNATAKA ;15460;560100;8861411100;NULL
5814;ABCDE1234F;BARBEQUE DELIGHT;154600541000011;VIJ-ELECTRONIC CITY GENNXT;NO #54/1 GROUND FLOOR,BEGUR MAIN ROAD,;BOMMANAHALLI;BANGALORE  ;KARNATAKA ;15460;560035;9538861862;BARBEQUEDELIGHT2@GMAIL.COM
5814;ABCDE1234F;BARBEQUE DELIGHT;154600541000012;VIJ-ELECTRONIC CITY GENNXT;NO 52 & 61,KASAVANAHALLI NEAR BRS SCHOOL;CARMELARAM POST;BANGALORE  ;KARNATAKA ;15460;560035;9538861862;BARBEQUEDELIGHT3@GMAIL.COM
4900;AAOFK7326B;KRISHIL INDANE GAS SERVICE;154800301000013;VIJ-VIJAYAPURA,KARNATAKA;PROP RAGHU A N, SHOP NO 10, SUR NO 203/4;VIJAYAPURA KASABA HOBLI, DEVANAHALLI TQ;BANGALORE  ;KARNATAKA ;15480;562135;9886726315;ANRAGHU@GMAIL.COM
5912;ACFPH7321C;SRI RAM MEDICALS;155900301000053;VIJ-YELAHANKA OLD TOWN;PROPRIETOR-JAGADISH #11 SURABHI LAYOUT; OPP VDB APTS JAKKUR MN ROAD YELAHANKA;BANGALORE  ;KARNATAKA ;15590;560064;9945498051;NULL
4722;AELPT0700P;SKY IMMIGRATIONS SERVICES;155906211000001;VIJ-YELAHANKA OLD TOWN;MS RAMAIAH MEMORIAL HOSPITAL NEW BEL ROAD;MS RAMAIAH NAGAR;BANGALORE  ;KARNATAKA ;15590;560054;9900238303;NULL
5732;ACSPH6233J;PRAJWAL ELECTRONICS;156400301000061;VIJ-LAXMESHWAR;S/O SHIVARUDRAYYA @ KALIKA NAGAR PETHA BANA;LAXMESHWAR SHIRAHATTI TQ;GADAG,KARNATAKA      ;KARNATAKA ;15640;582116;9886387505;NULL
5251;BSXPB5489E;SHRI RENUKA STEEL;156407711000001;VIJ-LAXMESHWAR;SHRI RENUKA STEEL NO 197/A PLOT NO 94;ITAGI RD BELLATTI TQ SHIRAHATTI;GADAG,KARNATAKA      ;KARNATAKA ;15640;582112;9742425375;NULL
5311;DTOPS6008G;KARAVALI FISH STALL;156600301000080;VIJ-KATHRIGUPPE;PROP:SANTOSH, NO.796/1/2, 80 FEET ROAD;HOSAKEREHALLI CROSS, BSK 3RD STAGE, BANGALORE;BANGALORE  ;KARNATAKA ;15660;560085;9482218387;NULL
5072;ABMPD9362M;SRI MANGALAM'S HARDWARE;156600301000112;VIJ-KATHRIGUPPE;#135, KATHRIGUPPE MAIN ROAD, BSK 1ST STAGE;BANGALORE- 560050;BANGALORE  ;KARNATAKA ;15660;560085;9886676274;NULL
5977;AYYPN1166E;BEAUTY & HEALTH;157000301000008;VIJ-BANGALORE-RBI LAYOUT;PROP NIVEDA U,NO 7 & 8,KOTHANUR;GRAMATANA VILLAGE,UTTARAHALLI HOBLI;BANGALORE  ;KARNATAKA ;15700;560076;9886799862;NULL
5814;AOGPS0489F;PALLAVI RESIDENCY;180600301000036;VIJ-J T MATT GADAG KARNATAKA;41/B NEAR BUS STAND ;MUNDARAGI ROAD  GADAG;GADAG,KARNATAKA      ;KARNATAKA ;18060;582101;9448730166;NULL
8299;AAAJB0668B;BALDWIN GIRLS HIGH SCHOOL BUS A/C;180901010000602;VIJ-BALDWIN GIRLS HIGH SCHOOL;DM,RICHMOND RD,;BANGLORE;BANGALORE  ;.;18090;560025;9686830071;BALDWINGIRLS@GMAIL.COM
5611;AGHPR7238J;SAI VENTURES;181006041000001;VIJ-VIJ - BASAVESHWARNAGAR -BL;#324, R. B. COMPLEX, 8TH MAIN, 3RD BLOCK,;BASAVESHWARNAGAR, BANGALORE;BANGALORE  ;KARNATAKA ;18100;560079;9845827486;RAVI.CHARLIES@GMAIL.COM
5944;BIHPP2108J;CHITTAYIL JEWELLWERY  PROPRIETOR;200700300000265;VIJ-CHOTTANIKKARA KERALA;PRABHAKARAN C P S/O PURUSHOTHAMAN;CHITTAYIL HOUSE  MARADU PO;ERNAKULAM  ;KERALA ;20070;682312;9605272103;NULL
5651;AAFFB7407D;B'SONS SWAYAMVARA;203507711000004;VIJ-TALIPARAMBA KERALA;XII1/1247,MAIN ROAD TALIPOARAMBA;TALIPARAMBA;TALIPARAMBA,KERALA   ;KERALA ;20350;670141;9447479397;NULL
5311;ABCDE1234F;FASHIONS ZONE;203600541000004;VIJ-TELLICHERRY KERALA;DOOR NO 46/1057 - 46/1058;MALLERS COMPUND , NEAR TRAFFIC POLICE STATION;TELLICHERRY,KERALA   ;KERALA ;20360;670101;9388702170;NULL
5812;AAGFN8526N;NEW ROYAL BAKERS;204000301000178;VIJ-TRIPUNITHURA KERALA;20/723.723-A  PINDIS ARCADE;MARKET JUNCTION;TRIPUNITHURA,KERALA  ;KERALA ;20400;682301;9847082467;NULL
5812;ABCDE1234F;ROYAL BAKERS AND RESTAURANT;204006211000052;VIJ-TRIPUNITHURA KERALA;ROYAL BAKERS AND  RESTAURANT;NO.14/78E,E1, THIRUNILATH BUILDING, S. N JUNC;TRIPUNITHURA,KERALA  ;KERALA ;20400;682301;9847082467;NULL
5812;AHFPM0010J;THE ROYAL BAKERS & RESTAURANT;204006211000055;VIJ-TRIPUNITHURA KERALA;66/6273 & 74   AMBADY BULDING;OPP SHENOY'S  M G ROAD;ERNAKULAM  ;KERALA ;20400;682031;9847082467;NULL
5814;ABCDE1234F;HOTEL PADMA;204100301000218;VIJ-TRIVANDRUM MAIN KERALA;HOTEL PADMA;VANCHIYOOR, TRIVANDRUM;TRIVANDRUM ;KERALA ;20410;695035;9400094200;NULL
7011;AAEFG8154B;GAYATHRI  INTERNATIONAL;205900300000689;VIJ-BADAGARA KERALA;257/ 1 B,  WARD NO.19;EDODI;BADAGARA,KERALA      ;KERALA ;20590;673101;9846424889;MITHU999@GMAIL.COM
5999;AATFP4232E;PRINZ TRAVELS;205900301000086;VIJ-BADAGARA KERALA;VO ROAD;VADAKARA;BADAGARA,KERALA      ;KERALA ;20590;673101;9846424889;NULL
5999;AAAFQ0832A;QUEEN STEELS;205906041000006;VIJ-BADAGARA KERALA;V.O. ROAD;VADAKARA;BADAGARA,KERALA      ;KERALA ;20590;673101;9846424889;QUEENSSTEELS@GMAIL.COM
5999;AADFP6163C;PRINCE STEELS;205906041000007;VIJ-BADAGARA KERALA;29/156A   BYE PASS ROAD;VADAKARA;BADAGARA,KERALA      ;KERALA ;20590;673101;9846424889;PRINCESTEELS2013@GMAIL.COM
5944;AAFFP9713N;NARIKKALATHIL PRINZ JEWELLERY;205906041000008;VIJ-BADAGARA KERALA;DOOR NO. 20/53C;QUEENS ROAD, VATAKARA;BADAGARA,KERALA      ;KERALA ;20590;673101;9846424889;NULL
5999;AAGFT8361F;T T TRADING COMPANY;206006041000013;VIJ-CHANGANCHERRY KERALA;PAIPPAD ROAD,EZHINJILLAM;PERUMTHURUTHY P.O,TIRUVALLA;TIRUVALLA,KERALA     ;KERALA ;20600;689107;9961591627;THOMASTHOMASTRADING@GMAIL.COM
5311;BBLPR4233D;M RAHMATHULLA KHAN;206007711000007;VIJ-CHANGANCHERRY KERALA;M R STORES, 333&334/20,; PATTATHIMUKKU;CHANGANCHERRY,KERALA ;KERALA ;20600;686102;9446195390;NULL
5231;AAGFC0740H;CAPITAL TRADERS;206706041000004;VIJ-CHAVAKKAD KERALA;NEAR BSNL OFFICE,;OUTER RING ROAD;GURUVAYOOR,KERALA    ;KERALA ;20670;680101;9847956665;CAPITALTRADERSGVR@GMAIL.COM
5722;AGTPP7597G;SITHARA TRADERS;207100301000101;VIJ-VELLAYAMBALAM;"G-2, ""FUTURE HOUSE"",";SASTHAMANGALAM.;TRIVANDRUM ;KERALA ;20710;695010;9447028296;NULL
8062;AAEFC6773C;CHAITHRA MEDICAL CENTRE;207201011000209;VIJ-VIDYANAGAR KASARAGOD;OPPOSITE GOVT. COLLEGE,KASARAGOD;BY, MG. PARTNER,DR.DINESH KUMAR.K.K.;KASARGOD,KERALA      ;KERALA ;20720;671123;9447496868;NULL
5971;AHLPT1413C;CHINNUS ADVERTISING &FLEX PRINTING;207306211000007;VIJ-VIZHINJAM;PROP. BIJU S T,SYAM NILAYAM,THAYVILAKAM;VENGANOOR PO;TRIVANDRUM ;KERALA ;20730;695523;9961619737;TVMCHINNUS@GMAIL.COM
8062;AIKPJ3231C;A J  HOSPITAL, MEDICINES;207400301000006;VIJ- KAZHAKUTTOM;A J HOSPITAL; KAZHAKKUTTAM;TRIVANDRUM ;KERALA ;20740;695582;9446382201;AJHOSPITAL85@GMAIL.COM
7011;ADOPM8908Q;HOTEL YA -ALI  PROP.MOHAMED MOHAMED SALIM;207400301000036;VIJ- KAZHAKUTTOM;OPP. INDIAN OIL PUMP  N H ROAD;KAZHAKOOTTAM P.O  TRIVANDRUM;TRIVANDRUM ;KERALA ;20740;695582;9447207139;NULL
8043;AAIFG8425D;GOKULAM-ROSE EYE-CLINIC & OPTICALS;207900301000015;VIJ-KOTTARAKKARA;PULIAZHIKATH BUILDING;PULAMON PO,KOTTARAKKARA;KOTTARAKKARA,KOLLAM;KERALA ;20790;691531;9349044453;NULL
5814;AAJCS1325A;SEALINE HOTELS PVT LTD;208300301000042;VIJ-SP.URBAN MICRO FINANCE BR;5 712, GUJARATHI ROAD,;OPP JALARAM DHAM TEMPLE, MATTANCHERRY;KOCHI      ;KERALA ;20830;682006;8129350955;VMRINISH@YAHOO.COM
5814;AQNPR2724H;MARARI BEACH VILLAS;208400301000001;VIJ-MARARIKULAM;ERESSERIL HOUSE;MARARIKULAM NORTH PO;ALLEPPEY;KERALA ;20840;688549;9447484883;NULL
7631;AAFFR5960B;RAJA JEWELLERS;208800301000033;VIJ-NILESHWAR;RAJA JEWELLERS;NILESHWAR;KASARGOD,KERALA      ;KERALA ;20880;671314;9446653452;NULL
4900;AOUPD1776J;PATHIYARA STONE GALLERY;209400301000035;VIJ-KODUNGALLUR BRANCH;IV/267 A, KORAMPARAMBIL, KODUNGALLUR;N H BYPASS;TRISSUR ;KERALA ;20940;680664;9847909175;AKDPILLAI9100@GMAIL.COM
8398;AAATU5624J;UDAY EDUCATIONAL AND CHARITABLE TRUST UNIT SAI KRISHNA PUBLIC SCHOOL;211600301000001;VIJ-CHENKAL KERALA;SAI KRISHNA,NO.XVI/385;CHENKAL P O,TRIVANDRUM;CHENKAL,KERALA;KERALA ;21160;695132;9387785111;NULL
8299;AALFC9834D;CONCEPT GURU;212300541000001;VIJ-THRIKKAKARA;PANACHIKKAL BUILDING 2ND FLOOR 275-J CIVIL;LANE ROAD  EAST VAZHAKKALA;ERNAKULAM  ;KERALA ;21230;682021;7356604262;KOCHI@CONCEPTGURU.IN
7230;ASQPA5745G;DREAM STYLE;212500301000013;VIJ-KOTHAMANGALAM;PROP ANUMOL A,XXIX/168, ONNAM MILE;MOUNT SEENAI ARAMANA ROAD, KOTHAMANGALAM;ERNAKULAM  ;KERALA ;21250;686671;9961737377;ANUMOL1300@GMAIL.COM
5732;AACFN2216R;N.MAHALINGAM & COMPANY;300400300001415;VIJ-NANJAPPA ROAD COIMBATORE;P.B NO.3843         468,DR.NANJAPPA RD;                    COIMBATORE;COIMBATORE ;TAMIL NADU;30040;641018;9655517456;NULL
5541;AACFN2216R;N.MAHALINGAM & COMPANY;300400300001453;VIJ-NANJAPPA ROAD COIMBATORE;P.B NO.3843         468,DR.NANJAPPA RD;                    COIMBATORE;COIMBATORE ;TAMIL NADU;30040;641018;9655517456;NULL
7298;AAIPV1553F;FITNESS CONCEPTS;300500301000110;VIJ-EGMORE CHENNAI;NEW NO 30 OLD NO 53;MONTIETH ROAD EGMORE;CHENNAI    ;TAMIL NADU;30050;600008;8148498933;NULL
7230;AAJCS2829P;SARK COSMETICS P LTD SHOP 2;300500301000478;VIJ-EGMORE CHENNAI;BASU TOWER,NO.406,TTK ROAD,;ALWARPET,CHENNAI;CHENNAI    ;TAMIL NADU;30050;600018;9841020056;NULL
5251;ABCDE1234F;MAHAVIR WOODS N VENEER;300500301000674;VIJ-EGMORE CHENNAI;48, CHOOLAI HIGH ROAD;CHOOLAI;CHENNAI    ;TAMIL NADU;30050;600112;9840759369;MAHAVIR WOODS  N VENEERS@GMAIL .COM
8062;AAATL0264D;MADRAS EGMORE LIONS BLOOD BANK & RESEARC;300501010013324;VIJ-EGMORE CHENNAI;H FOUNDATION130,MARSHALLS R;OAD,EGMORE,;CHENNAI    ;TAMIL NADU;30050;600008;9444023440;NULL
5072;AGXPC8407C;KOTAGIRI CEMENT CORPORATION;300607711000012;VIJ-KOTAGIRI TAMILNADU;PROP SURIYANARAYANAN 27/02  DONNINGTON ROAD;KOTAGIRI;KOTAGIRI,TAMILNADU   ;TAMIL NADU;30060;643217;9843803409;NULL
5940;AADPU8773H;POPULAR TRADERS;300700300001779;VIJ-MADURAI TAMILNADU;62-A WEST AVANI MOOLA STREET;NULL;MADURAI,TAMILNADU    ;TAMIL NADU;30070;625001;9942537877;NULL
5999;AABFT7268E;THE NILAGIRIES PEST CONTROL AGENCIES;300900301000005;VIJ-UDHAGAMANDALAM TAMILNADU;NO.278 B;FERNHILL;UDHAGAMANDALAM,TAMILNADU       ;TAMIL NADU;30090;643001;9843124578;NULL
5533;ADSPT3991L;DURGA RESTURANT;300900301000124;VIJ-UDHAGAMANDALAM TAMILNADU;HOTEL DURGA,;ETTINES ROAD,;UDHAGAMANDALAM,TAMILNADU       ;TAMIL NADU;30090;643001;9443027798;NULL
7011;ABCDE1234F;DESANTOSH RESIDENCY;300900301000139;VIJ-UDHAGAMANDALAM TAMILNADU;NO 137-1;ETTINES ROAD;UDHAGAMANDALAM,TAMILNADU       ;TAMIL NADU;30090;643001;9786175000;NULL
5651;ABCDE1234F;COTTON CLASSIC;300906211000002;VIJ-UDHAGAMANDALAM TAMILNADU;51 CHARRING CROSS COMPLEX;OOTY;UDHAGAMANDALAM,TAMILNADU       ;TAMIL NADU;30090;643001;9443027798;NULL
5198;AAKFS4901Q;SRI VIJAYALAKSHMI & CO.;301006110250004;VIJ-R S PURAM COIMBATORE;586 METTUPALAYAM RD;COIMBATORE;COIMBATORE ;TAMIL NADU;30100;641002;9843071222;NULL
5541;AACFN2216R;N MAHALINGAM & COMPANY  T.D.V SERVICE CE;301100300000720;VIJ-POLLACHI TAMILNADU;P.B NO.3843         468,DR.NANJAPPA RD;                    COIMBATORE;COIMBATORE ;TAMIL NADU;30110;641018;9655517456;POLLACHI@NMANDCO.COM
7230;AKUPA0761E;AYESHA GROUP INC;301200301000404;VIJ-SAIDAPET CHENNAI;OLD NO.68/1,A1,AARTHI APTS.,12TH AVENUE;ASHOK NAGAR;CHENNAI    ;TAMIL NADU;30120;600083;8939722299;NULL
5198;AFSPG8509B;OM SAKTHI AGENCIES;301500301000062;VIJ-TRIPLICANE CHENNAI;#28,VENKATACHALAMUDALI STREET;PARK TOWN CHENNAI;CHENNAI    ;TAMIL NADU;30150;600003;9840030142;NULL
5192;AOSPS5488N;SRI SAMUNTEESWARI AMMAL WASTE PAPER MART;301500301000721;VIJ-TRIPLICANE CHENNAI;OLD NO.12.N.NO.23   AKBAR STREET,;TRIPLICANE,         CHENNAI;CHENNAI    ;TAMIL NADU;30150;600005;9444082087;NULL
5198;AIKPP1753B;OM SAKTHI TRADERS;301506211000010;VIJ-TRIPLICANE CHENNAI;#28,VENKATACHALAMUDALI STREET;PARK TOWN  ,CHENNAI;CHENNAI    ;TAMIL NADU;30150;600003;9840030142;NULL
5511;AALFS9629L;SRI SANKARESWARI AGENCIES;301606021000013;VIJ-TUTICORIN TAMILNADU;19, GIN FACTORY ROAD;TUTICORIN;TUTICORIN,TAMILNADU  ;TAMIL NADU;30160;628002;9443722594;NULL
5533;AAFPB9578B;ROSHINI FOODS;301700300002300;VIJ-T NAGAR CHENNAI;II FLOOR,PRINCE PLAZA, 46,PANTHEON ROAD;EGMORE, CHENNAI-8;CHENNAI    ;TAMIL NADU;30170;600008;9840719856;NULL
8062;AABFI2292P;IRFAN X RAYS AND LABS;302000300000291;VIJ-PURUSAWALKAM CHENNAI;MILLERS ROAD;KOLPAUK;CHENNAI    ;TAMIL NADU;30200;600010;9840116786;NULL
5311;AARPR2633K;MUBARAK STORES;302000301000170;VIJ-PURUSAWALKAM CHENNAI;NO 79 PONNAPPA MUDALI STREET;PURASAWALKAM;CHENNAI    ;TAMIL NADU;30200;600084;9840279222;MUBARAKSTORECHENNAI@GMAIL.COM
5533;AARFB1879M;BUHARI RESTAURANT;302000301000640;VIJ-PURUSAWALKAM CHENNAI;NO-290(4);PURASAWALKAM HIGH ROAD;CHENNAI    ;TAMIL NADU;30200;600007;9841444481;IRFANBUHARI@GMAIL.COM
5712;ABJPH7529R;FAASA FURN CITY;302100301000792;VIJ-TONDIARPET CHENNAI;NO 1/193 OMR ROAD PADUR;CHENNAI;CHENNAI    ;TAMIL NADU;30210;603103;9940291333;FAASAFURNCITY@GMAIL.COM
5712;ABJPH7529R;FAASA FURN PARK;302100301000805;VIJ-TONDIARPET CHENNAI;O NO 362 N NO 1077 T H ROAD;OLD WASHERMENPET;CHENNAI    ;TAMIL NADU;30210;600021;9042662333;NULL
5311;AACFW1094L;WALKER SHOE MART;303100301000182;VIJ-CUDDALORE TAMILNADU;88-E, LAWRANCE ROAD;CUDDALORE;CUDDALORE,TAMILNADU  ;TAMIL NADU;30310;607002;9364483005;NULL
5311;AALFJ3123G;JASMINE SILKS AND READYMADES;303100301000183;VIJ-CUDDALORE TAMILNADU;PROP.A MALLIHAMMAL;77 LAWRENCE ROAD,TIRUPPAPULIYUR;CUDDALORE,TAMILNADU  ;TAMIL NADU;30310;607002;8098585205;NULL
7299;AJYPK5365P;GENUINE COFFEE COMPANY PRO/OF/KANNAN;303100301000215;VIJ-CUDDALORE TAMILNADU;N082/76 SUBBURAYACHETTY STREET;THIRUPAPULIYUR   CUDDALORE;CUDDALORE,TAMILNADU  ;TAMIL NADU;30310;607002;9486790027;NULL
5311;ABCDE1234F;RAJATHI FASHION;303100301000263;VIJ-CUDDALORE TAMILNADU;30-B  SUBBURAYALU  NAGAR;CUDDALORE;CUDDALORE,TAMILNADU  ;TAMIL NADU;30310;607002;9367761272;NULL
7298;BZUPK2084E;TAMILNADU MEDICALS (BRANCH);303100301000327;VIJ-CUDDALORE TAMILNADU;NO.1 DHANDAPANI STREET;THIRUPPAPULIYUR;CUDDALORE,TAMILNADU  ;TAMIL NADU;30310;607002;9486151651;NULL
5311;AQVPS6187M;JASMINE FANCY STORE;303100301000329;VIJ-CUDDALORE TAMILNADU;89/D-7  LAWRENCE ROAD; THIRUPAPULIYUR;CUDDALORE,TAMILNADU  ;TAMIL NADU;30310;607002;9367183005;NULL
5172;AAEPR1121K;RAAJENDHIREN  K R;303106211000032;VIJ-CUDDALORE TAMILNADU;NO.1 VANDIPALAYAM ROAD;CUDDALORE;CUDDALORE,TAMILNADU  ;TAMIL NADU;30310;607004;9443154533;NULL
5311;AALFR3321G;RAJATHI  A M A  DEPARTMENTAL STORE;303106211000033;VIJ-CUDDALORE TAMILNADU;104. A V B  COMPLEX;NEAR G R  KOSTEL;CUDDALORE,TAMILNADU  ;TAMIL NADU;30310;607001;9367761272;NULL
5311;AALFR3323E;RAJATHI SHOPPING  (WORLD);303106211000037;VIJ-CUDDALORE TAMILNADU;24B/30  BHARATHI  ROAD;OPP  NEW CINEMA  CUDDALORE;CUDDALORE,TAMILNADU  ;TAMIL NADU;30310;607001;9367761272;RSMJASMINE@GMAIL.COM
5499;AQLPM0436F;AMUTHAM AGENCIES;303600301000591;VIJ-VARADARAJAPURAM COIMBATORE;PROP. MURUGESAN, 204A A G K COMPLEX;IINDFLOOR, CHINNASAMY RD, NEW SIDDHAPUDUR;COIMBATORE ;TAMIL NADU;30360;641044;9944181803;AMUTHAMAGENCIES2011@GMAIL.COM
5999;ANJPS0553L;SABARISH POOJA STORES;303706211000027;VIJ-HOSUR TAMILNADU;PROP- SREERAMULU T,VNO 6, BAZAR STREET;HOSUR-635109;HOSUR,TAMILNADU      ;TAMIL NADU;30370;635109;9443220177;NULL
7278;AAEAT8692G;THE TIRUPUR CLUB;303800300000192;VIJ-TIRUPUR TAMILNADU;AVINASHI ROAD;                  TIRUPUR;TIRUPUR,TAMILNADU    ;TAMIL NADU;30380;641603;9489184651;THETIRUPURCLUB1928@GMAIL.COM
5651;AHVPB4356Q;FASHON INDIA;303800301001148;VIJ-TIRUPUR TAMILNADU;32 BUNGLOW ROAD, AVINASHI ROAD,;TIRUPUR;TIRUPUR,TAMILNADU    ;TAMIL NADU;30380;641602;9442220301;FASHONINDIA@GMAIL.COM
5732;AAMFS7998H;SRI RAM ELECTRICALS AND HARDWARES;303806211000040;VIJ-TIRUPUR TAMILNADU;159 AVANASHI ROAD;OPP.SRINIVASA THEATRE;TIRUPUR,TAMILNADU    ;TAMIL NADU;30380;641603;9362464741;NULL
5999;AAZFA3458R;ARULROSE TRADERS;303900301000653;VIJ-KOLATHUR CHENNAI;3/20 RAJAMANGALAM 8TH STREET RAJAMANGALAM;VILLIVAKKAM CHENNAI;CHENNAI    ;TAMIL NADU;30390;600049;9445227713;ARULROSETRADERS@GMAIL.COM
5045;ABCDE1234F;SAKTHI SRI BUSINESS CENTRE;304100301000931;VIJ-S M E COIMBATORE;11/27A SS AVANUE, GOLDWINS,CIVIL AERO PO;COIMBATORE;COIMBATORE ;TAMIL NADU;30410;641014;9585345553;NANDHABALUSAMY@GMAIL.COM
7298;AGTPJ7911Q;KOTTAKKAL ARYA VAIDYASALA AGENCY(AMBATTUR);304206041000001;VIJ-I F B CHENNAI;44,MOUNASAMY MUTT CROSS ST;AMBATTUR,CH-53;CHENNAI    ;TAMIL NADU;30420;600053;9444807633;NULL
5945;AAGFG9745A;GLOBAL COMFORT SYSTEMS;304406021000009;VIJ-ANNANAGAR CHENNAI;J-41,II MAIN ROAD,ANNANAGAR EAST,;CHENNAI-102;CHENNAI    ;TAMIL NADU;30440;600102;9444063753;GLOBALCOMFORTSYSTEMS@GMAIL.COM
7311;AADPT3311L;OPEN HEART COMMUNICATIONS;304800301000276;VIJ-ASHOK NAGAR, CHENNAI;6/11, 1ST FLOOR, 52ND STREET, 7TH AVENUE,;ASHOK NAGAR, CHENNAI;CHENNAI    ;TAMIL NADU;30480;600083;9884092233;NULL
5732;AKRPM3048F;M.R.ENGINEERS;304806261000004;VIJ-ASHOK NAGAR, CHENNAI;T/215,1ST FLOOR, GANDHI STREET, PARI NAGAR;JAFFERKHANPET;CHENNAI    ;TAMIL NADU;30480;600078;7299918844;NULL
5621;AAKFB4552F;BRAHSPATI SAREES;306200301000322;VIJ-RAMANATHAPURAM,COIMBATORE;#5, MAY FLOWER SAKTHI COMPLEX,;NANJUNDAPURAM ROAD,;COIMBATORE ;TAMIL NADU;30620;641036;9994440000;NULL
5211;AKVPV5045R;K V TRADERS;306306041000009;VIJ-KANCHIPURAM;NO.52,PATALA STREET, TOLLGATE,;CHINNA KANCHIPURAM,PROP:K VETRIVEL;KANCHIPURAM;TAMIL NADU;30630;631501;9443597064;NULL
5311;ABCDE1234F;SRI MAHALAKSHMI SUPERMARKET;306306041000012;VIJ-KANCHIPURAM;NO 41 A VELLORE ROAD;KANCHIPURAM;KANCHIPURAM;TAMIL NADU;30630;631502;9715162889;NULL
5311;AHQPR6466C;NEW THANGAM STORES-RAMACHANDRAN;306400301000002;VIJ-VIRUGAMBAKKAM, CHENNAI;230 I CROSS STREET III MAIN ROAD;NATESAN NAGAR VIRUGAMBAKKAM;CHENNAI    ;TAMIL NADU;30640;600092;9444697756;NULL
7011;AAMCA2236P;ARJUN PRASHANTH HOTELS PRIVATE LIMITED;306600301000221;VIJ-KUMBAKONAM;NEW NO 36, NEW STATE BANK COLONY,;WEST TAMBARAM, CHENNAI;CHENNAI    ;TAMIL NADU;30660;600045;9884045677;DSRMADHANAMINN@GMAIL.COM
5732;AISPB7764Q;MATHAJI ELECTRICALS;307400301000031;VIJ-KUNDRATHUR;NO 16,ROAD STREET;KUNDRATHUR;CHENNAI    ;TAMIL NADU;30740;600069;9444493548;NULL
5812;ABCDE1234F;SUMI DRIVEINN;309400301000115;VIJ-PALLADAM BRANCH;10/47 1E-3 ,NSK NAGAR, CHINAKARAI,;PALLADAM ROAD, PALLADAM TK, TIRUPUR;PALLADAM,TAMIL NADU;TAMIL NADU;30940;641605;9843063900;SUMIDRIVEINNRESTOURANT@GMAIL.COM
5912;ABCDE1234F;SRI BALAJI MEDICALS;310200301000041;VIJ-VELACHERRY;12C,4TH MAIN ROAD,AGS COLONY,;VELACHERY;CHENNAI    ;TAMIL NADU;31020;600042;9965943543;NULL
5411;CKNPS0314L;JAYAM HYPER MARKET;310600301000009;VIJ-KODAMBAKKAM BRANCH;27/26, SUBHAMANGAL COMPLEX, OPP: BEST HOSPITA;VELLALAR STREET, KODAMBAKKAM;CHENNAI    ;TAMIL NADU;31060;600024;9790739600;NULL
4812;BTCPM7482E;MAHALAKSHMI CELL CORNER;310800301000053;VIJ-THENNAMPALAYAM,TAMILNADU;8/34 KOVAI MAIN ROAD;ARASUR POST SULUR TK;COIMBATORE ;TAMIL NADU;31080;641047;9865301782;NULL
8043;ADXPA5420G;STAR VISION;311800301000022;VIJ-MADURAI - ELLIS NAGAR;PROP: A NISHANTH  101, SATHYAMURTHY NAGAR;BYE PASS ROAD, MADURAI 10;MADURAI,TAMILNADU    ;TAMIL NADU;31180;625010;9845045649;NULL
5311;ABCDE1234F;SENTHIL STORES;313200301000051;VIJ-NATHAMEDU;NO 1/90, PAKKAM ROAD,;NATHAMEDU;THIRUVALLUR;TAMIL NADU;31320;602024;9444611475;NULL
5111;BUHPS7318K;SATHIYA NARAYANA TRADERS;313206021000001;VIJ-NATHAMEDU;NO 91/3 NATCHIYAR CHATHIRAM;II CTH ROAD THIRUNINRAVUR;THIRUVALLUR;TAMIL NADU;31320;602024;9841341228;SIVAKUMAR5381@GMAIL.COM
8299;AAATK6949C;KENNEDY MATRIC HR SEC SCHOOL;313500301000044;VIJ-TINDIVANAM;TINDIVANAM, RETTANAI;VILLUPURAM DT;TINDIVANAM;TAMIL NADU;31350;604306;9600768732;NULL
5021;AAVPZ0816G;A.J.HUSSAIN BED MART FURNITURE SALES AND SERVICE;313500301000045;VIJ-TINDIVANAM;NO:17/7A, ROTTIKARA STREET,;TINDIVANAM;TINDIVANAM;TAMIL NADU;31350;604001;9843732515;NULL
5942;AFVPS5439K;OSMANIA MEDICAL BOOK HOUSE;400300301000252;VIJ-BANK STREET HYDERABA;PROP: SYED MAJEEDUDDIN,SHOP NO:30;PUSHPANJALI COMPLEX,OPP OSMANIA MEDICAL COLLE;HYDERABAD  ;TELANGANA STATE;40030;500095;9848249198;OSMANIAPUBLISHERS@YAHOO.COM
5912;ABIPG4690F;DIVYANSHI PHARMA;400300541000014;VIJ-BANK STREET HYDERABA;M/S DIVYANSHI PHARMA;DNO:4-4-285 GROUND FLOOR , SULTAN BAZAR;HYDERABAD  ;TELANGANA STATE;40030;500095;9246150457;NULL
8062;AABTB5985A;BHAGWAN MAHAVIR JAIN RELIEF FOUNDATION TRUST MEDICAL ASSISTANCE;400301011000965;VIJ-BANK STREET HYDERABA;4.1.690 MAHABHUPAL MANZIL;VIKRANTI CINEMA COMPOUND, JAMBAGH HYDERABAD;HYDERABAD  ;ANDHRA PRADESH ;40030;500095;8885524166;BMJRFT@GMAIL.COM
8062;AABTB5985A;BHAGWAN MAHAVIR  DIALYSIS CENTRE;400301011001898;VIJ-BANK STREET HYDERABA;BHAGWAN MAHAVIR DIALYSIS CENTER;DISTRICT GOVT HOSPITAL KING KOTI  HYD;HYDERABAD  ;TELANGANA STATE;40030;500095;8885524166;BMJRFT@GMAIL.COM
5211;ABCDE1234F;G V J TRADERS;400800300001677;VIJ-WEST MARREDPALLI SECUNDERA;6-2-129             NEWBHOIGUDA;SECUNDERABAD;SECUNDERABAD         ;ANDHRA PRADESH ;40080;500009;9246156383;GVJTRADERS@GMAIL.COM
5039;ADOPK7106N;DEVI AGENCIES PROP G SUSHEEL KUMAR;401600300001739;VIJ-NALLAKUNTA HYDERABAD;SHOP NO 27          HYDERI COMMERCIAL CO;MPLEX PANBAZAR      RANIGUNJ;HYDERABAD  ;ANDHRA PRADESH ;40160;500044;9391092223;NULL
5999;ABCDE1234F;SRI SREE AYYAPPA SANITARYWARE STORES;401700300001109;VIJ-NELLORE ANDHRA PRADESH;D NO 7/751, NSC. BOSE ROAD;SUBEDARPET, NELLORE;NELLORE,ANDHRA PRADESH         ;ANDHRA PRADESH ;40170;524001;9440275348;B
5999;BEIPK1587H;LOVELY AGENCIES;401700301000224;VIJ-NELLORE ANDHRA PRADESH;PROP. THANMAYESWAR KONDA S/O PRAVEEN SANKAR;DNO 6/3/144, JEENIGALA ST, STONEHOUSEPET;NELLORE,ANDHRA PRADESH         ;ANDHRA PRADESH ;40170;524002;9030151523;KONDATHANMAYESWAR@GMAIL.COM
8299;AAAAN3561C;NRI EDUCATIONAL SOCIETY-INDIAN SPRINGS-COLLECTION ACCOUNT;402300301000261;VIJ-TIRUPATHI ANDHRA PRADESH; D NO 4-5-29/85 4TH LINE VIDYANAGAR GUNTUR;GUNTUR;GUNTUR,ANDHRA PRADESH;ANDHRA PRADESH ;40230;522007;9490626924;NULL
5533;DSYPS6288B;SREEJA RESTAURANT;402300301000272;VIJ-TIRUPATHI ANDHRA PRADESH;PROP. SINGIRI SUSHMA, NO. 14/2/142;T P AREA;TIRUPATHI  ;ANDHRA PRADESH ;40230;517501;9966099992;NULL
7011;ABCDE1234F;PROFESSIONAL HOSPITALITY SERVICES;402500301000774;VIJ-VIJAYANAGAR COLONY HYDERAB;22/A MIE HAFEEZPET;MIYAPUR,HYDERABAD;HYDERABAD  ;TELANGANA STATE;40250;500049;9849502323;NULL
7210;AABFH5370F;HEERA MOTI GARMENTS,DILIP KUMAR;404600301000148;VIJ-NARAYANGUDA HYDERABAD;GULAB M GOPANI,MOTILAL M GOPANI,DEVENDER;M.GOPANI,1-1-261/19,CHIKKADPALLY;HYDERABAD  ;ANDHRA PRADESH ;40460;500029;9849024518;NULL
8220;AACTS8839H;SUJATHA JUNIOR COLLEGE;404800300000993;VIJ-PUBLIC GARDEN ROAD HYDERAB;5-9-160             CHAPEL ROAD;                    HYDERABAD;HYDERABAD  ;ANDHRA PRADESH ;40480;500001;9393493001;JAISINGH9918@GMAIL.COM
5921;AKBPL5265D;SHAMEELATHA D S;405000301000216;VIJ-KURNOOL ANDHRA PRADESH;W/O RAGHAVENDRA REDDY, HNO.1-43F;JULAKALLU VILL, GUDURU MANDAL;KURNOOL,ANDHRA PRADESH         ;ANDHRA PRADESH ;40500;518462;9849660041;NULL
5812;AJEPG0185D;RAJDHANI DHABA , RESTAURANT & BAR;405100301000102;VIJ-VEMULAWADA ANDHRA PRADESH;PROP:RAMESH GAJJELA , D NO: 2-70/C;THIPPAPUR VEMULAWADA;VEMULAWADA,ANDHRA PRADESH      ;TELANGANA STATE;40510;505302;9533440006;NULL
5944;ACAPT8832H;SRI SRINIVASA JEWELLERS PAN BROKER;405500300000081;VIJ-VINUKONDA ANDHRA PRADESH;D.NO.1-28,MAIN BAZAR,;VINUKONDA;VINUKONDA,ANDHRA PRADESH       ;ANDHRA PRADESH ;40550;522647;9440207829;NULL
5812;AGDPM1101D;NAGARJUNA BAR AND RESTAURANT;405506041000002;VIJ-VINUKONDA ANDHRA PRADESH;D NO:30-473 AND 474;NARASARAOPET ROAD;VINUKONDA,ANDHRA PRADESH       ;ANDHRA PRADESH ;40550;522647;9440207823;MANIREDDY1223@GMAIL.COM
5944;AACFM8330R;MOTILAL JEWELLERS & PEARLS;405800300001180;VIJ-CHARMINAR HYDERABAD;22-7-195,;PATHERGATTI,;HYDERABAD  ;ANDHRA PRADESH ;40580;500002;9396542617;NULL
5944;ADVPN2206R;KRISHNA JEWELLERS;405800301000454;VIJ-CHARMINAR HYDERABAD;S.NO:21-2-194 VALLABHDAS BUILDING;CHARKAMAN;HYDERABAD  ;ANDHRA PRADESH ;40580;500002;9948257168;S
5944;ABGPA5677G;MANASAROVAR PEARLS;405800301000626;VIJ-CHARMINAR HYDERABAD;SHOP NO 21-2-131 BHAGYA LAXMI COMPLEX;CHARKAMAN HYDERABAD TELANGANA 500002;HYDERABAD  ;TELANGANA STATE;40580;500002;9866054304;MANASAROVAR1@YAHOO.COM
5511;AESPD9441A;SRI SUDHA AUTOMOBILES PROP. D. SUDHAKAR;406507951000024;VIJ-MADANPALLE ANDHRA PRADESH;PRO D SUDHAKAR, S/O D GANGULAPPA, GANDHI ROAD;4, SUBBA REDDY COMPLEX , NIMMANAPALLI CROSS;MADANPALLE,ANDHRA PRADESH      ;ANDHRA PRADESH ;40650;517325;9440358028;NULL
7011;BWHPS0345E;SRI.VENKATESHWARA BHAVAN A/C;407300301000031;VIJ-MAHBOOBNAGAR ANDHRA PRADES;PROP. CHANDRASHEKAR SHETTY;HOTEL AVANTHI, NEAR TO GOVT HOSPITAL;MAHBOOBNAGAR;ANDHRA PRADESH ;40730;509001;9866056665;NULL
5651;AAPFM1521M;MENS CLUB;407306041000008;VIJ-MAHBOOBNAGAR ANDHRA PRADES;H.NO:-2-2-129/10/N,M.B.C.COMPLEX,;RAICHUR ROAD,MAHABUBNAGAR;MAHBOOBNAGAR;TELANGANA STATE;40730;509001;9866463239;NULL
8062;AHBPT1591P;SRI KAMAKSHI CARE HOSPITAL;408100301000118;VIJ-CHIRALA;DNO:9/1/80 1ST FLOOR CHURCH ROAD;SRI KAMAKSHI CARE HOSPITAL;CHIRALA;ANDHRA PRADESH ;40810;523155;9885651270;NULL
5651;ABFPJ6617E;JALADI SRINIVASA KUMAR;408101011000814;VIJ-CHIRALA;13-9-53/2, JALADI COPMLEX,;R R ROAD;CHIRALA;ANDHRA PRADESH ;40810;523155;9030213708;NULL
7298;AAJCS2829P;SARK COSMETICS PRIVATE LIMITED;408400301000536;VIJ-JUBILEE HILLS FILMNAGAR;#139, STERLING HEIGHTS BASEMENT,;INFANTRY ROAD;HYDERABAD  ;KARNATAKA ;40840;560051;9841020056;NULL
7230;BFRPK8828P;CELESTTE;408500301000574;VIJ-GANDHINAGAR HYDERABAD;H NO 3-6-196 & 197/102, I ST FLOOR;PRIME PLAZA  MAIN ROAD  HIMAYAT NAGAR,;HYDERABAD  ;ANDHRA PRADESH ;40850;500029;9849020336;VRAJU14@YAHOO.COM
4722;BDJPK0078H;BANJARA COMMUNICATIONS;408600301000224;VIJ-SRINAGAR COLONY, HYDERABAD;8-2-268/2 ROAD NO 2 OPP AXIS BANK;BANJARAHILLS,HYDERABAD;HYDERABAD  ;ANDHRA PRADESH ;41410;500034;9949107511;BANJARA09@GMAIL.COM
7011;AGUPM2911N;HOTEL SUPRABHAT;409500301000031;VIJ-HABSIGUDA,HYDERABAD;H NO.1-91  HOTEL SUPRABATH;HABSIGUDA, HYDERABAD 500007;HYDERABAD  ;ANDHRA PRADESH ;40950;500007;9701551857;NULL
5732;ABCDE1234F;MANJUNATHA MOBILES;410200301000087;VIJ-MEDCHAL,ANDHRAPRADESH;MANJUNATHA MOBILES,SHOP NO.13-63;MEDCHAL;MEDCHAL,ANDHRA PRADESH;TELANGANA STATE;41020;501401;9866384955;NULL
5651;ACEPM0013D;SEEMATTI SILKS;410800301000078;VIJ-PUTTUR;PROP: A N MOHAMMED SHAFICK;# 5-2, SENGUNDHAR ST;PUTTUR     ;ANDHRA PRADESH ;41080;517583;9440773200;NULL
5651;ABDPA3487D;INDIA SILK HOUSE;410800301000079;VIJ-PUTTUR;PROP: A N NAZEER AHMED;# 5-2, SENGUNDHAR ST;PUTTUR     ;ANDHRA PRADESH ;41080;517583;9676559078;NULL
7011;ABRPG3355N;HOTEL BALAJI GRAND;411300521000001;VIJ-SURYAPET,HYDERABAD;PROP:GUNDA SUJATHA,;HNO:1-2-204/A,MG RAOD,SURYAPET,NALGONDA.;SURYAPET,NALGONDA DIST;TELANGANA STATE;41130;508213;9848520102;NULL
5912;AAFCV1484K;VIJAYA IMAGINGS AND CLINICAL LABS  INDIA PRIVATE LIMITED;413600301000034;VIJ-M V P COLONY VISAKHAPATNAM;D.NO.1-83-18/2/1 MIG-103 SECTOR-3;MVP COLONY;VISHAKAPATNAM,AP;ANDHRA PRADESH ;41360;530017;9246615830;NULL
8062;AAGFV6713M;VISWABHARATHI CANCER HOSPITAL;413700301000009;VIJ-PENCHIKALAPADU;PENCHIKALAPADU, NEAR K NAGALAPURAM VILLAGE;KALLUR MANDAL;KURNOOL,ANDHRA PRADESH         ;ANDHRA PRADESH ;41370;518001;9848076186;NULL
5999;ACVPM9478K;MAHALAKSHMI FERTILISERS & PESTICIDES;414700301000013;VIJ-NARASARAOPETA,A.P.;PROP:MODALA VENKATESWARA VARA PRASAD;9-1-58 STATION ROAD,NARASARAOPET;GUNTUR,ANDHRA PRADESH;ANDHRA PRADESH ;41470;522601;8121336822;NULL
5651;AESPD3091G;SRI ANJANEYA TEXTILES;414700301000069;VIJ-NARASARAOPETA,A.P.;PROP:DIVVELA SAMBASIVARAO;9-1-86,STATION RD,NARASARAOPET;NARASARAOPETA,ANDHRA PRADESH;ANDHRA PRADESH ;41470;522601;9866535942;NULL
5999;AKKPA1247M;NEW CAR SHRINGAR MANCHERIAL;416100301000025;VIJ-MANCHERIAL;#10-149 GARIMILLA NEAR MUNICIPALITY AREA;MANCHERIAL;MANCHERIAL,TELANGANA;TELANGANA STATE;41610;504208;9966884422;NULL
5462;AAXPA2277Q;SRI MAHALAXMI SWEET HOUSE;416100301000026;VIJ-MANCHERIAL;PROP:PURUSHOTTAM AGARWAL, # 8-388, MAIN ROAD;MANCHERIAL;MANCHERIAL,TELANGANA;TELANGANA STATE;41610;504208;9849838652;NULL
5971;AOGPC4528P;GOLDEN AGENCY;416300541000002;VIJ-KODADA;D.NO.4-165,MAIN ROAD,OPP NAGARJUNA;LODGE,KODAD;KODADA,TELANGANA STATE;TELANGANA STATE;41630;508206;9848282883;NULL
5999;AKKPJ5351R;BRITE LOOK DRY CLEANERS;417500301000042;VIJ-MANIKONDA,TELANGANA;H NO 8-1-284/OU/303  O U COLONY;FRONT MULGI SHAIKPET;HYDERABAD  ;TELANGANA STATE;41750;500008;9177208743;NULL
5311;BORPB0894P;SAIRAM KIRANA GENRAL STORE;417500301000056;VIJ-MANIKONDA,TELANGANA;H NO 8-1-284/OU-18,OU COLONY;SHAIKPET,RANGAREDDY;HYDERABAD  ;TELANGANA STATE;41750;500089;9444886199;B.NAGARAJUSANA@GMAIL.COM
5812;AJAPN1182H;DHRUVA RESTAURANT AND BAR;417500301000062;VIJ-MANIKONDA,TELANGANA;PLOT NO.2 SREERAMNAGAR COLONY PUPPALGUDA; MANIKONDA HYDERABAD;HYDERABAD  ;TELANGANA STATE;41750;500089;8099901111;696NIKHIL@GMAIL.COM
5812;AAFPC5309R.;WANTON HOUSE CHINESE RESTAURANT;500200301000228;VIJ-BANDRA(W) MUMBAI;4 SHAM PALACE 98 HILL ROAD;BANDRA W;MUMBAI     ;MAHARASHTRA ;50020;400050;9987422229;WANTONHOUSE@REDIFFMAIL.COM
5812;AAFPC5309R.;WANTON HOUSE;500200301000591;VIJ-BANDRA(W) MUMBAI;4 SHAM PALACE 98 HILL ROAD;BANDRA W;MUMBAI     ;MAHARASHTRA ;50020;400050;9987422229;NULL
5812;AFYPK8791D;SWADESH ( KAMATH )  RESTAURANT;500400301000545;VIJ-CHINCHWAD PUNE;SUKHWANI  CAMPUS,  A-3, SILVER OAK  COMPLEX;VALLABHNAGAR PUNE;PUNE       ;MAHARASHTRA ;50040;411018;9822356253;NULL
5812;AINPP1802A;DEEP SNACKS BAR & RESTAURANT;500400301000575;VIJ-CHINCHWAD PUNE;FLAT NO.1, ASHIRWAD HSG SOC. SANT TUKARAM;NAGAR, PIMPRI;PUNE       ;MAHARASHTRA ;50040;411018;8308639363;NULL
7011;ABEPS4999M;DIVINE HOTELS;500400301000784;VIJ-CHINCHWAD PUNE;51/3/1, OPP. PANDIT AUTOMOBILES,INFOSYS ROAD;THATHAWADE, DANGE CHOWK,PUNE;PUNE       ;MAHARASHTRA ;50040;411033;9892054034;NULL
5533;ABCDE1234F;SAVALI VEG RESTAURANT;500400301000791;VIJ-CHINCHWAD PUNE;FLAT NO.6,MORYA APPT,OPP-KABIR GARDEN,SEC-24;PRADHIKARAN,NIGDI,PUNE;PUNE       ;MAHARASHTRA ;50040;411044;9850826699;NULL
5533;ABCDE1234F;HOTEL SANKET;500400301000805;VIJ-CHINCHWAD PUNE;MORYA APTS ,FLAT NO-6, SECTOR 24;PLOT- 323, PUNE;PUNE       ;MAHARASHTRA ;50040;411044;9922501689;NULL
5699;AHFPP5624H;R.K.STYLES;500406011000018;VIJ-CHINCHWAD PUNE;FLAT NO.B/3,BLDG,3,NEAR POLYGRASS;HOCKY STADIUM,MIDC,BHOSARI;PUNE       ;MAHARASHTRA ;50040;411026;9850502639;RKSTYLE4@GMAIL.COM
5812;AACFC5978K;CHINTAMANI CATERERS;500407711000021;VIJ-CHINCHWAD PUNE;S NO 34 PARMAR COMPLEX MUMBAI PUNE ROAD;NIGDI     PUNE;PUNE       ;MAHARASHTRA ;50040;411044;9922730032;NULL
5812;ACOPS8114R;SAPTGIRI RESTAURANT;500407751000001;VIJ-CHINCHWAD PUNE;OPP.FORMICA,        PRESTIGE PLAZA;AKURDI              PUNE;PUNE       ;MAHARASHTRA ;50040;411044;9822611149;SAPTAGIRI.RESTAURANT@GMAIL.COM
5533;AAAFS3362F;SUKH SAGAR;500800300102033;VIJ-GAMDEVI MUMBAI;MARINA MANSION, SUKH SAGAR BUILDING,;S.V.P ROAD, CHOWPATTY.;MUMBAI     ;MAHARASHTRA ;50080;400007;7506691785;SURESHPOOJARI@GMAIL.COM
5533;AADFH6465M;HOTEL SANMAN;500900300003915;VIJ-GOREGAON(W) MUMBAI;ASHOKRAJ BULD.,     S.V. ROAD,;GOREGAON [WEST]     MUMBAI;MUMBAI     ;MAHARASHTRA ;50090;400062;9833236773;NULL
5912;ABDPB1709P;BALIGA DISTRIBUTERS;501000300000908;VIJ-KOLHAPUR MAHARASTRA;1607/2,GANJI        GALLI,;                    KOLHAPUR;KOLHAPUR,MAHARASTRA  ;MAHARASHTRA ;50100;416002;9822199537;NULL
5912;AAOFK8995L;KAMAKSHI SURGICAL DISTRIBUTORS;501000301000280;VIJ-KOLHAPUR MAHARASTRA;GALA NO 1 TULJABHAVANI MARKET SHAHUPURI;1ST LANE KOLHAPUR;KOLHAPUR,MAHARASTRA  ;MAHARASHTRA ;50100;416001;9822199537;NULL
7011;AAACO2044F;M/S. HOTEL BHOOSHAN;501600300000477;VIJ-SADASHIVPET PUNE;1170/7 REVENUE COLONY;SHIVAJI NAGAR          J M ROAD;PUNE       ;MAHARASHTRA ;50160;411005;9822261660;INFO@HOTELBHOOSHAN.COM
7011;APRPS3557A;GRISHMA HOTEL MANAGEMENT SERVICES;501600300001596;VIJ-SADASHIVPET PUNE;22,YASHODHAN,PHATAK BAUG,OPP RAJANDRA NAGAR;NAVIPETH, PUNE-411030.;PUNE       ;MAHARASHTRA ;50160;411005;9822022148;NULL
5812;CDVPS7924M; ADI JANARDHANA CATERERS;501600301000169;VIJ-SADASHIVPET PUNE;HOTEL SATKAR 10 OSWAL PARK , OPP S T;STAND SHIVAJI NAGAR;PUNE       ;MAHARASHTRA ;50160;411005;9822094413;NULL
5651;AZHPP1935F;NIILE CREATIONS;501600301000440;VIJ-SADASHIVPET PUNE;437/C NEAR LOKHANDE TALIM;NARAYAN PETH;PUNE       ;MAHARASHTRA ;50160;411030;9921827568;NULL
5812;ACHPS9296B;ANSHUL CATERERS KISHORE K SHETTY PR;501606211000013;VIJ-SADASHIVPET PUNE;S NO 797/5 PLOT NO 135/7;JOSHI HOSPITAL ROAD SHIVAJINAGAR;PUNE       ;MAHARASHTRA ;50160;411005;9657727789;STERLINGCATERERS@YAHOO.COM
5812;ATKPS5898P;SIGNATURE FAMILY RESTO BAR;501606211000044;VIJ-SADASHIVPET PUNE;PLATINUM CLASSIQUE CO-OP. SOC. GROUND FLOOR;CHANDAN NAGAR, KHARADI BYPASS, NAGAR RD.,PUNE;PUNE       ;MAHARASHTRA ;50160;411028;9423203366;NULL
8042;ADBPA7403M;AGGARWAL PREM SITARAM.;501701010020097;VIJ-SANTACRUZ MUMBAI;102/5KETAYUN MANSIONSHAHAJI RAJE MARG,;KOLDONGRI.V.PARLE{E}MUMBAI.;MUMBAI     ;MAHARASHTRA ;50170;400057;9821111116;AGGARWALEYEHOSPITAL@GMAIL.COM
5533;AGDPH6329Q;HOTEL MALHAR;501900301000545;VIJ-THANA(W) MAHARASTRA;03, SHIVKRUPA CHS LTD  VISHNU NAGAR;NAUPADA THANE;THANA;MAHARASHTRA ;50190;400602;9819270910;HEGDELD@GMAIL.COM
5812;AADFT6104B;HOTEL TARA PALACE;502300300001193;VIJ-DOMBIVILI(E) MAHARASTRA;SHOP NO 6-7, GEET GOVIND CHS;NEHRU RD, DOMBIVILI [E];DOMBIVILI,THANE (DT);MAHARASHTRA ;50230;421201;9867600529;NULL
5533;AMWPS0890G;HOTEL CENTRAL PARK;502700301000214;VIJ-ULHASNAGAR MAHARASTRA;HOTEL CENTRAL PARK, SHANTINAGAR,;ULHASNAGAR-3;ULHASNAGAR,MAHARASHTRA;MAHARASHTRA ;50270;421003;8149557333;NULL
5499;AQDPC4782G;S.K. ENTERPRISES;502700301000296;VIJ-ULHASNAGAR MAHARASTRA;S-7, D-1, BLDG.A-2, MADHAV SRISHTI;KHADAKPADA, KALYAN;KALYAN     ;MAHARASHTRA ;50270;421301;9766636310;NULL
5532;AASPD5090K;NIRANKARI TYRES;502706021000025;VIJ-ULHASNAGAR MAHARASTRA;SHOP NO. 788, SECTION 17;NEAR H P PETROL PUMP, ULHASNAGAR 3;ULHASNAGAR,MAHARASHTRA;MAHARASHTRA ;50270;421003;9970058580;NIRANKARITYRES@YAHOO.COM
5533;AAHFA 3740Q;ASHOKA RESTAURANT - PRO SUNIL JATHAN;503800301000055;VIJ-KIRKEE MAHARASTRA;S NO 435, NASIK PHATA,;KASARWADI, MUMBAI ROAD,;PUNE       ;MAHARASHTRA ;50380;411034;9881007576;NULL
7298;APAPP6933L;JANNET  BEAUTY  CARE;503800301000245;VIJ-KIRKEE MAHARASTRA;39, AUNDH  ROAD,;ANAND  NAGAR , SHINDE CHAWL  PUNE;PUNE       ;MAHARASHTRA ;50380;411003;9922168729;NULL
5311;AEEPA0471K;SACHIN JAGDISH  AGARWAL;503800301000401;VIJ-KIRKEE MAHARASTRA;37,  AUNDH ROAD, AMBEDKAR CHOWK,;KIRKEE;PUNE       ;MAHARASHTRA ;50380;411020;9767721199;SACHINGRWL@GMAIL.COM
5499;AKGPJ6201Q;J K CONFECTIONERY AND ICE CREAM PARLOUR;503800301000554;VIJ-KIRKEE MAHARASTRA;S NO 2A/2A RAVIRAJ HERITAGE SHOP NO16;BOPODI PUNE;PUNE       ;MAHARASHTRA ;50380;411020;9270058302;NULL
5812;AEBPS8025G;HOTEL M.M.(PROP.H.P.SHETTY)502768;505200300000704;VIJ-VIRAR(W) MAHARASTRA;BOLINJ NAKA,        AGASHI ROAD,;                    VIRAR (WEST);THANA;MAHARASHTRA ;50520;401303;9326096840;NULL
5813;ABCDE1234F;ASHRAYA ENTERPRISES;505200301000539;VIJ-VIRAR(W) MAHARASTRA;SHOP NO 1&2 GANGA APARTMENT VILLAGE VIRAR;NEAR MANVEL PADA VIRAR EAST;THANA;MAHARASHTRA ;50520;410303;9860567999;NULL
5651;AGVPP 2954K;SHEETAL COLLECTION;505307711000004;VIJ-NEW PANVEL MAHARASTRA;SHOP NO-25/26 SEC-11  SHUBHAM COMPLEX;NEW PANVEL 410206;NEW PANVEL, MAHARASHTRA;MAHARASHTRA ;50530;410206;9820791363;NULL
5712;AOHPC0952Q;SHRI FURNITURE AND FURNISHING;505900301000319;VIJ-NANDED MAHARASTRA;SHOP NO 15 ALIBHAI TOWER;SHIVAJI NAGAR NANDED;NANDED,MAHARASTRA    ;MAHARASHTRA ;50590;431605;9860992888;NULL
7298;AJHPA7200N;FITNESS MANTRAS;506500301000405;VIJ-KALYANI NAGAR PUNE;S NO 162/2, RD NO 3, ADARSH COLONY;TINGRE NAGAR;PUNE       ;MAHARASHTRA ;50650;411032;9960555939;AGARWAL.RENU2@GMAIL.COM
5533;ABCDE1234F;   SWARNAA VEG RESTAURANT;506600301000560;VIJ-SATARA ROAD PUNE;SHOP NO L-12 TO L-17, CHOUDHAR'S HEIGHT 1;S NO 130/2/1, MUMBAI PUNE BYEPASS, WARJE;PUNE       ;MAHARASHTRA ;50660;411058;9890570937;NULL
5533;AALFT8437B;THE PINEAPPLE GROUP;506600301000666;VIJ-SATARA ROAD PUNE;F/1B SNO. 567, PLOT NO. 4/B, VASTU NAGAR;BIBWEWADI, PUNE;PUNE       ;MAHARASHTRA ;50660;411037;8888940940;THEBIGPINEAPPLEGROUP@GMAIL.COM
5921;AAFFK5066K;K.G.WINE SHOP;507000301000186;VIJ-KANDIVILI;K.G.WINE SHOP,SHOP NO.23 & 24 RAJ ARCADE;MAHAVIRNAGAR,KANDIVALI (W);MUMBAI     ;MAHARASHTRA ;50700;400067;9820193476;NULL
5734;AIBPS5876K;G. N. UNITED COMPUTERS;507100301000139;VIJ-VERSOVA MUMBAI;SHOP NO.3, SARKAR CORNER, NXT TO GARDEN COURT;RES, J P ROAD& VEERA DESAI RD, ANDHERI(W);MUMBAI     ;MAHARASHTRA ;50710;400053;9820073459;NULL
7298;ABCDE1234F;WELCARE HEALTH AND WELLNESS PVT LTD;507100301000620;VIJ-VERSOVA MUMBAI;216 CRYSTAL POINT ABOVE TATA STAR BAZAR; NEW LINK RD, ANDHERI(W);MUMBAI     ;MAHARASHTRA ;50710;400053;9867734702;NULL
5621;ABBPR1801J;MY DRESS BOX;507200301000437;VIJ-DR.AMBEDKAR ROAD BRANCH,MU;SHOP NO.4,PARIMAL SOCIETY,GROUND FLOOR;17TH ROAD,KHAR WEST;MUMBAI     ;MAHARASHTRA ;50720;400052;9820707219;NULL
5651;AFKPV1454L;ENVY;507400301000095;VIJ-DHOLE PATIL ROAD, PUNE;A.5 ASHIYANA PARK, NORTH MAIN ROAD;KOREGAON PARK PUNE;PUNE       ;MAHARASHTRA ;50740;411001;9822433348;NISHAENVY@GMAIL.COM
5533;AABTT0854G;THE LADIES CLUB;507401011002884;VIJ-DHOLE PATIL ROAD, PUNE;3 LT COL TARAPORE ROAD;PUNE;PUNE       ;MAHARASHTRA ;50740;411001;9421059597;NULL
5812;AAHCM7217R;MERIDIAN RESTAURANT AND BAR PRIVATE LIMITED;507500301000586;VIJ-MALAD (W) MUMBAI;178-1,RXXC 179-2/2, GANESH NAGAR CHARKPO;LINK ROAD KANDIWALI WEST;MUMBAI     ;MAHARASHTRA ;50750;400067;9892730580;NULL
5812;AAMFV8091J;VELKAR FARMS ENTERPRISES;507800301000339;VIJ-MULUND(W) MUMBAI;M/S. VELKAR FARMS, NEAR VARSAVA  BRIDGE,;OPP.FOUNTAIN HOTEL,NATIONAL HIGHWAY NO.8, THA;THANE;MAHARASHTRA ;50780;401107;7506735399;INFO@VELKARFARMS.COM
5971;AVBPM7236N;SHRI SAINATH BAG HOUSE;508300301000185;VIJ-VIJ - SHIRDI;GATE NO 4 SAINATH FULL BHANDAR SHIRDI;TAL RAHATA DIST AHMNEDNAGAR;SHIRDI;MAHARASHTRA ;50830;423109;9028684984;MODIJITEN@GMAIL.COM
5533;AHZPD0761F;TEMPTATION PURE VEG FAMILLY RESTAURANT;508900301000334;VIJ-PARBHANI;AT.POST.H NO.4/K/56/715 WASMAT ROAD;TQ.DIST.PARBHANI;PARBHANI;MAHARASHTRA ;50890;431401;7588018470;NULL
5651;ABAPR0991A; SAHELI;509600301000042;VIJ-NALLASOPARA,THANE DIST;A-502  ASTAR  APT. SHRIPASTA;NALLASOPARA (W);THANA;MAHARASHTRA ;50960;401203;9970555090;NULL
8042;ACCPG4630N;GADGIL`S EYE HOSPITAL;509900301000257;VIJ-LOUSIWADI,MAHARASTRA;GROUND FLOOR, SHREYAS CHS LTD., RAMCHANDRA;NAGAR 1, NITIN CO JUNCTION THANE WEST;THANA;MAHARASHTRA ;50990;400604;9820017486;NULL
5533;ABAPS2265G;PRAJA SNACKS CORNER;509907751000002;VIJ-LOUSIWADI,MAHARASTRA;NR SILVER AUTO MOTOR GARAGE, LOUIS WADI;OPP NITIN COMPANY SERVICE ROAD, THANE WEST;THANA;MAHARASHTRA ;50990;400604;9820719912;NULL
5533;AAVPS6294H;PRAJA KITCHEN;509907751000007;VIJ-LOUSIWADI,MAHARASTRA;VASANTVIHAR NAKA, VASANT VIHAR GATE;POKHRAN ROAD NO-2;THANA;MAHARASHTRA ;50990;400601;9820719912;NULL
5411;AKGPC1097F;ROYAL SUPER MARKET;510000301000051;VIJ-BORIVALI EAST;PROP RAMLAL CHODHARY  SHOP NO 2 ASHOKA TOWER;OPP RAHEJA ESTATE KULUPWADI BORIVALI EAST;MUMBAI     ;MAHARASHTRA ;51000;400066;9920033613;NULL
5611;ACHPW2838H;SATGURU FASHION WORLD;510700301000137;VIJ-GANDHINAGAR KOLHAPUR;PLOT NO 190  ,SHOP NO 2;OPP ICICI  MAIN ROAD GANDHINAGAR;KOLHAPUR,MAHARASTRA  ;MAHARASHTRA ;51070;416119;7276561699;NULL
5651;BDVPK3155K;PUSHKAR COLLECTION;510700301000252;VIJ-GANDHINAGAR KOLHAPUR;C S NO - 29/6 , HOUSE NO-966;MAIN ROAD  GANDHINAGAR;GANDHINAGAR KOLHAPUR;MAHARASHTRA ;51070;416119;9860808725;NULL
5611;ABIPW9470H;SATGURU FASHION;510706211000018;VIJ-GANDHINAGAR KOLHAPUR;PLOT NO 190-C/5;OPP ICICI  MAIN ROAD GANDHINAGAR;KOLHAPUR,MAHARASTRA  ;MAHARASHTRA ;51070;416119;9405833707;NULL
5944;AYZPB1829R;KRISHNA JEWELLERS;511300301000083;VIJ-NIBM,KONDHWA BRANCH;SHOP NO 3 OPEL ARSH SR NO 49/1 16/165/77;MITHA NAGAR KONDHWA KHURD PUNE;PUNE       ;MAHARASHTRA ;51130;411048;9765602470;NULL
5912;ANSPG9916E;APURVA CHEMIST;511306211000023;VIJ-NIBM,KONDHWA BRANCH;SHOP NO.C-6, S.NO.5/A, PHASE 2,;MAYFAIR 'A', KONDHWA KHURD,;PUNE       ;MAHARASHTRA ;51130;411048;9822782932;NULL
5533;ADQPN5099M;KALASH  PURE  VEG;511307751000002;VIJ-NIBM,KONDHWA BRANCH;FLAT NO 8 GREEN LEAF CO OP SOCIETY;MARKET  ROAD  BEHIND WINNERS CORT LULLANAGAR;PUNE       ;MAHARASHTRA ;51130;41140;9371045465;NULL
5511;BDGPG6516D;SHIV BIKE SERVICE CENTRE;512000301000005;VIJ-PIMPLE SAUDAGAR;KUNJIR DAIRY, NEAR ROSE COUNTY GATE;PIMPLE SAUDAGAR;PUNE       ;MAHARASHTRA ;51200;411027;8055985700;NULL
5462;ABSPU2164J;S.L.J. BANGLORE IYYANGAR BAKERY;512000301000007;VIJ-PIMPLE SAUDAGAR;SHOP NO 1, BLDG-A, RADHANAGARI, S NO 6/2;PIMPLE SAUDAGAR;PUNE       ;MAHARASHTRA ;51200;411027;7719008138;MALNADBAKERY123@GMAIL.COM
5533;ABCDE1234F;LITTLE  CHEF  CAFE;512000301000118;VIJ-PIMPLE SAUDAGAR;K-303,  SAPPHIRE PARK,  S NO 210,;PARK STREET,  WAKAD;PUNE       ;MAHARASHTRA ;51200;411057;9665869000;NULL
5533;BAWPM1054P;NAKSHATRA  PURE VEG  FAMILY RESTAURANT;512000301000135;VIJ-PIMPLE SAUDAGAR;S NO 67, SHOP NO 1 & 2, GANESH PARK,;PIMPLE SAUDAGAR;PUNE       ;MAHARASHTRA ;51200;411027;8888098097;NULL
5812;AAYFS3178B;SHIVAR GARDEN  RESTAURANT;512000301000146;VIJ-PIMPLE SAUDAGAR; S NO 18/11/6 JAGTAP DAIRY RD;SHIVAR CHOWK,RAHATNI;PUNE       ;MAHARASHTRA ;51200;411017;9850050045;SHIVAR.GARDEN01@GMAIL.COM
5533;ABCDE1234F;MANSI  DINNING  HALL;512000301000169;VIJ-PIMPLE SAUDAGAR;S NO  SHOP NO 1 SUNERA PLAZA;GANESH NAGAR THERGAON PUNE 411033;PUNE       ;MAHARASHTRA ;51200;411033;9945060032;NULL
5541;AJRPP0223E;AARUJ PETROLEUM;512106041000002;VIJ-BARAMATI;PLOT NO A-02/1, VIDYA PRATHISTAN MIDC;PENCIL CHOWK, BARAMATI;BARAMATI,MAHARASTRA;MAHARASHTRA ;51210;413102;9823284551;AARUJPETROLEUM@GMAIL.COM
5511;AJWPJ0850C;SHREE SAMARTH BATTERY;512200301000180;VIJ-NANDED PHATA;NANDED JADHAVNAGAR;SINHGAD ROAD,;PUNE       ;MAHARASHTRA ;51220;411024;9850230026;NULL
5921;AKPPM0689J;SWAGAT BEER SHOPEE;512200301000314;VIJ-NANDED PHATA;H.NO.424 A, KHADAKWASLA, NEAR DEEPALI;PHOTO STUDIO, SIHGAD ROAD, TAL HAVELI;PUNE       ;MAHARASHTRA ;51220;411024;9370565656;NULL
5812;AADFA1727F;ABHINANDAN RESTAURANT & BAR;512400301000088;VIJ-AIROLI;SHOP 2&3,           PANCHSHEEL COMM COMP;SECTOR 4,AIROLI     NAVIMUMBAI;THANA;MAHARASHTRA ;51240;400708;9987361261;NULL
5812;ABCDE1234F;TYPICAL VEG KADAI;512400301000096;VIJ-AIROLI;SHOP NO 8 AND 9, KALPANA PARK BUILDING;SECTOR 9, AIROLI NAVI MUMBAI;NAVI MUMBAI;MAHARASHTRA ;51240;400708;9699102221;NULL
5411;AAJFH7685P;HI CHOICE FRESH MART;513000301000192;VIJ-KHARADI;SNO 56/1A 6B, SHOP NO 1,;BLUE BERRY SOC,KHARADI,PUNE;PUNE       ;MAHARASHTRA ;51300;411014;9881113352;NULL
5812;ABDFA6442Q;ATITHI HOSPITALITY SERVICES;513700301000050;VIJ-WARJE PUNE;P NO 84 SR NO 98 BHUSARI COLONY PAUD ROAD;KOTHRUD;PUNE       ;MAHARASHTRA ;51370;411038;9822063454;PRAVINSHETTYPUTTUR@GMAIL.COM
5533;APGPN6819R;PREM  CATERES;513700301000120;VIJ-WARJE PUNE;SR NO 133, SAI COLONY, NR SAI HOTEL; WARJE MALWADI;PUNE       ;MAHARASHTRA ;51370;411058;9860244458;NULL
5533;ABCDE1234F;HOTEL KASANOVA INN;513900301000001;VIJ-KIWALE,PUNE;NEAR PAVANA HOSPITAL,SOMATANE;PARATANE WADI, MAWAL  PUNE;PUNE       ;MAHARASHTRA ;51390;412101;9767940904;NULL
5533;BKMPS2166J;SATKAR CATERERS;513900301000247;VIJ-KIWALE,PUNE;INDRAPRABHA FLAT NO 205, D2 BLDG;VIKASNAGAR, DEHUROAD, KIWALE,PUNE;PUNE       ;MAHARASHTRA ;51390;412101;9766638611;NULL
5533;ABCDE1234F;ANNAPOORNA PURE VEG;514500301000001;VIJ-LOHEGAON,PUNE;SR 262/1/2/17 NEAR KHALSA DAIRY OLD DHANORI N;DHANORI LOHEGAON ROAD DHANORI;PUNE       ;MAHARASHTRA ;51450;411015;9420425915;NULL
8062;ABCDE1234F;SPARSH ORTHOPAEDIC AND GENERAL HOSPITAL;514500301000044;VIJ-LOHEGAON,PUNE;SR NO 281, DHANORI LOHEGAON ROAD;SATHEWASTI LOHEGAON;PUNE       ;MAHARASHTRA ;51450;411015;9545555352;DR.RASHMI.KUNWAR@GMAIL.COM
5422;AKTPJ1236E;PRAGATI FRESH CHICKEN CENTRE;514500301000176;VIJ-LOHEGAON,PUNE;S NO 272 SATHE WATI  SAINAGAR;LAHAGAON PUNE;PUNE       ;MAHARASHTRA ;51450;411047;8888947976;NULL
5912;BJDPB9600G;WELCARE MEDICO;514500301000338;VIJ-LOHEGAON,PUNE;S NO 259,HISSA NO 4/53,FLAT NO 11,SHOP NO 2,;JAKAT NAKA ROAD,KALWAD,LOHEGAON;PUNE       ;MAHARASHTRA ;51450;411013;9561334499;DADASAHEBBHAPKAR28@GMAIL.COM
5533;CAUPS8057F;SHRI GANESH FOODS;514600301000073;INDIRA NAGAR NASIK;CITY CENTRE MALL,BANION SQUARE,LAVATE NAGAR,;UNTWADI,NASIK;NASIK,MAHARASTRA     ;MAHARASHTRA ;51460;422002;9767626232;SHRIGANESHFOODS333@GMAIL.COM
5451;ADHPR6430R;SHETTY ENTERPRISE;601000300001076;VIJ-PANAJI GOA;PROP. SUKUMAR R SHETTY,SHOP NO 7 GURUDATTA BL;PANAJI GOA          MOB NO. 9822103017;PANJIM     ;GOA;60100;403001;9822103017;REKHASUKUMARSHETTY@YAHOO.CO.IN
5451;ADHPR6430R;SHETTY ENTERPRISES (PORVORIM);601000300001381;VIJ-PANAJI GOA;SHOP NO 1           BHARADWAJ HOUSE;PORVORIM HIGHWAY    PORVORIM GOA;PORVORIM, NORTH GOA;GOA;60100;403001;9822103017;REKHASUKUMARSHETTY@YAHOO.CO.IN
5451;ADHPR6430R;SHETTY   ENTERPRISE;601000301000017;VIJ-PANAJI GOA;PROP. SUKUMAR R SHETTY,SHOP NO 7 GURUDATTA BL;PANAJI GOA          MOB NO. 9822103017;PANJIM     ;GOA;60100;403001;9822103017;REKHASUKUMARSHETTY@YAHOO.CO.IN
5533;EEFPS2029L;AMIGOS;601000301000137;VIJ-PANAJI GOA;H NO 23/42/1 NEAR GOVT QUARTERS;ST INEZ PANAJI;PANAJI;GOA;60100;403001;8888217783;NULL
5411;AADPR8782P;REKHA ENTERPRISES PROP REKHA SHETTY;601000301000166;VIJ-PANAJI GOA;W/O SUKUMAR SHETTY  SHOP NO.6,GURUDATTA APTS.;M.G.ROAD,PANAJI,GOA;PANJIM     ;GOA;60100;403001;9822103017;REKHASUKUMARSHETTY@YAHOO.CO.IN
7011;AAOFP8243L;PREETHI CLASSIC;601400300000886;VIJ-MADGAON GOA;MARGAO RESIDENCY (GTDC LIMITED), FIRST FLOOR,;OPP. MARGAO MUNCIPAL CORPORATION;MARGAO     ;GOA;60140;403601;9970128895;NULL
5533;ABCDE1234F;SAGAR RESTAURANT;601400301000147;VIJ-MADGAON GOA;ARLEM CIRCLE, FATORDA;MARGAO, GOA- 403602;MARGAO     ;GOA;60140;403601;9860746165;NULL
4900;AFBPB0641Q;RUCHIKA AGENCY;601500300001529;VIJ-HAUZ KHAS NEW DELHI;B51 LAXMIBHAI NAGAR,MKT;,ND;DELHI      ;DELHI ;60150;110023;9810069340;B_-----------VISHAL1974@YAHOO.CO.IN
7011;AETPG0967R;BABADX HOTEL;601800300001915;VIJ-RAM NAGAR NEW DELHI;7784-95 ARAKASHAN   NEW DELHI-55;DELHI;DELHI      ;DELHI ;60180;110055;9810139670;RCGOEL2011@GMAIL.COM
7011;AABFA0207A;ARYA TOURIST LODGE;601800300003239;VIJ-RAM NAGAR NEW DELHI;8526                ARA KASHAN ROAD;RAM NAGAR           PAHAR GANJ,DELHI;DELHI      ;DELHI ;60180;110055;9811044543;NULL
5311;AQZPB5558P;BALAJI IYYER PICKLES AND SNACKS;602400301000493;VIJ-PONDICHERRY;#30, 2ND CROSS, TAGORE NAGAR;LAWSPET POST;PONDICHERRY;PONDICHERRY;60240;605008;9655423102;NULL
5311;AIOPG0485D;GOMATHI DEPARTMENTAL STORE;602400301000520;VIJ-PONDICHERRY;NO 571 KAMARAJ SALAI;VENNILA NAGAR;PONDICHERRY;PONDICHERRY ;60240;605013;9790656620;NULL
5311;AGQPR8815A;M/S AMMAN TIRUPUR EXPORTS;602406041000003;VIJ-PONDICHERRY;PROP RAJA SUGUNA;NO 251 ANNA SALAI;PONDICHERRY;PONDICHERRY ;60240;605001;9443744667;NULL
5812;AHEPS4393M;JAGANNATH M. SHETTY;602501010000079;VIJ-VASCO GOA;PROP.NEW PUNJAB BAR&REST.FLAT NO.1 1ST FLOOR;DR.MUKUND BLDG, F.L.GOMES ROAD,VASCO;VASCO DA GAMA        ;GOA;60250;403802;9822561987;NULL
5311;ABQPN4590D;SANJEEV ENTERPR;603200300000456;VIJ-GARACHARMA;BATHU BASTHI;PORTBLAIR;PORT BLAIR,ANDAMAN & NICOBAR   ;ANDAMAN & NICOBAR;60650;744101;9434280530;NULL
7333;ADNPJ4733D;V.J.M.INDUSTRIES PROP.-CHANDRA KISH;603406011000006;VIJ-PATPARGANG NEW DELHI;381 , 2ND FLOOR;PATPARGANJ INDUSTRIAL AREA;DELHI      ;DELHI ;60340;110092;9810552142;EXALONPROMOTION@GMAIL.COM
5045;AHQPP7247R;INFRA NETWORK SOLUTIONS PROP. ANIL PRUTHI;603500301000272;VIJ-NEHRU PLACE NEW DELHI;16A  IST FLOOR,;DEEPAK BUILDING, NEHRUPLACE;NEW DELHI  ;NEW DELHI;60350;110019;9810119230;SALES.INFRANETWORK@GMAIL.COM
5311;AFBPC1582M;SUNIL STORE;604200301000637;VIJ-MALAVIYA NAGAR DELHI;C-57, PANCHSHEEL VIHAR;MALVIYA NAGAR;DELHI      ;DELHI ;60420;110017;9911921612;NULL
5947;AABFM5344G;RANGOLI ENTERPRISES;604206211000006;VIJ-MALAVIYA NAGAR DELHI;D-85 MALVIYANAGAR;DELHI;DELHI      ;DELHI ;60420;110017;9810014929;RANGOLI.ENTP@GMAIL.COM
5942;AAGPA4581J;ANAND BOOK CORNER;604806041000004;VIJ-VIJ - MAYUR VIHAR, NEW DEL;D-37/6,ACHARYA NIKETAN;MAYUR VIHAR,PHASE-I ,DELHI-91;DELHI      ;DELHI ;60480;110091;9868082201;ASHOKANAND1962@GMAIL.COM
5311;ABIPF2762M;KENNETH SUPER MARKET;605506361000001;VIJ-SANTACRUZ;H.NO.699,ST AGOSTINHO ,NR SANTACRUZ CHURCH,;ST CRUZ,TISWADI,NORTH GOA;PANAJI;GOA;60550;403005;7507905552;NULL
5999;ACAPD1551B;MARIO GALLERY;605600301000028;VIJ-PORVORIM;H.NO. 674, TORDA , OPP. NISHA'S PLAY SCHOOL;SALVADOR-DO-MUNDO,BARDEZ, GOA;GOA        ;GOA;60560;403101;9765121961;NULL
5065;ACYPJ7384E;GAYATRI ELECTRICALS;605706211000003;VIJ-SILVASSA BRANCH;SHOP NO. 03 SAD GURU COMPLEX;OPP. MINI BUS STOP, KHANVEL ROAD, TOKHARKHADA;SILVASSA;DADRA & NAGAR HAVELI;60570;396230;9924285664;GAYATRI.ELECTRICALS@YAHOO.COM
5065;AXTPS9913L;SIKHA DIGITAL STUDIO AND COLOUR LAB PROP SIKHA SARKAR;606500301000061;VIJ-GARACHARMA;OPP GOENKA'S CLOTH STORE, BATHU BASTI;GARACHARMA(PO), NEW ROAD, PORT BLAIR;PORT BLAIR,ANDAMAN & NICOBAR   ;ANDAMAN & NICOBAR;60650;744105;9531824429;NULL
5451;AAIFC3925C;CASA DREAMS ESTATE;607000301000013;VIJ-DILSHAD GARDEN;A-158, SHOP NO-8;DILSHAD COLONY;DELHI      ;DELHI ;60700;110095;9811295212;MANISH22730@YAHOO.CO.IN
5533;AISPS9295H;SIDDHARTH UPWAN RESTAURANT;650500301000098;VIJ-JAUNPUR,WAZIPUR;HOUSE NO.- 223, TARTALLA;JAUNPUR;JAUNPUR    ;UTTAR PRADESH;65050;222001;9451711610;VISHALSINGH2279@GMAIL.COM
5533;CYNPM6375F;SHUBH JALPAN GRAH;650900301000086;VIJ-ROSHNABAD BRANCH;SEMRA GAURHI IIM ROAD MAHARSHI VIDYA;MANDIR LUCKNOW;LUCKNOW    ;UTTAR PRADESH;65090;226020;7376606014;NULL
2741;DHEPS7389G;ANKIT SCREEN;660400301000017;VIJ-PALI,KORBA;NEW BUS STAND;PALI;KORBA      ;CHHATTISGARH;66040;495445;9424150260;ANKITSCREEN02@GMAIL.COM
5732;ATRPC5825F;SAI SAGAR MOBILE SHOP;691300301000009;VIJ-SONGARH;SHOP NO 9, SAI COMPLEX, NEW RTO,;DIST - TAPI;SONGADH;GUJARAT;69130;394670;9909432102;NULL
7534;AAFFB2712H;BHILWARA TYRES;701700301000148;VIJ-ASHOKA MARG, BHILWARA;G-6,7 &13, TRANSPORT NAGAR,;BHILWARA;BHILWARA   ;RAJASTHAN ;70170;311001;9829097100;NULL
4812;ATFPK3526R;BHARAT TELELINK;701906211000007;VIJ-JHUNJHUNU RAJASTHAN;MONU COMPLEX;SHOP NO 3 & 4;JHUNJHUNU  ;RAJASTHAN ;70190;333001;9928585163;VIJENDRASIHAG21@GMAIL.COM
5511;AKNPY9080H;NAMAN AUTOWORLD;702506341000001;VIJ-HATHOJ BRANCH;PROP-LAL CHAND YADAV-8 RUDRAKSH MARKET;HATHOJ KALWAR ORAD JAIPUR;HATHOJ,JAIPUR;RAJASTHAN ;70250;302012;9680104040;NULL
5970;BWAPA3463L;PRINCE ART GALLERY;704900571000001;VIJ-SITAPURA,RAJASTHAN;PROP- ASHOK, HOUSE NO.320, PURANA AMER ROAD;SUBHASH CHOWK;JAIPUR     ;RAJASTHAN ;70490;302012;9887542783;PRICEARTGALLERYJPR@GMAIL.COM
4812;AEFPJ9014A;NEW TIME;710206010260011;VIJ-V N MARG ALLHABAD;42                  S.C.LAL ROAD;LAXMAN MARKET       ALLAHABAD;ALLAHABAD  ;UTTAR PRADESH;71020;211003;9451053348;NIRMAL.SANGEETAJAIN@GMAIL.COM
5999;AAJPN2195E;MODERN MACHINES CORPORATION;710206041000056;VIJ-V N MARG ALLHABAD;62 V N MARG;ALLAHABAD;ALLAHABAD  ;UTTAR PRADESH;71020;211003;9415254256;MODERNMACHINESCORP@GMAIL.COM
7011;AABFL5596K;LE GRAND HOTEL;714200301000037;VIJ-    7142 - HARIDWAR;LE GRAND HOTEL;RANIPUR MORE;HARIDWAR   ;UTTARANCHAL;71420;249401;9675000006;NULL
4900;AARPD6728K;SRIRAM ENTERPRISES;715000301000077;VIJ-SITAPUR;JAIL ROAD , NIKAT POLICE LINES;SITAPUR;SITAPUR, UP;UTTAR PRADESH;71500;261001;9415567179;NULL
5999;ACDPJ1657M;SAROJ & SONS;715206041000018;VIJ-FAIZABAD , U.P;5/2/61, NEAR EYE HOSPITAL; SAHAB  GANJ   FAIZABAD;FAIZABAD   ;UTTAR PRADESH;71520;224001;9453516901;VIMALJAISWAL.TISCON@REDIFFMAIL.COM
5999;AFOPJ7093P;SAROJ MARBONITE;715207711000001;VIJ-FAIZABAD , U.P;PROP-VIPIN JAISWAL,H NO-44/36NEAR EYEHOSPITAL;SAHABGANJ,FAIZABAD;FAIZABAD   ;UTTAR PRADESH;71520;224001;9453516903;SAROJ.MARBONITE@GMAIL.COM
5947;AKAPT5997R;DYNAMIC COLLECTION & TRADING COMPANY;715300301000314;VIJ-HALDWANI;NAI BASTI NEAR ASTHANA MASJED;WARD NO 20 BANPHOUL PURA HALDWANI;HALDWANI   ;UTTARANCHAL;71530;263139;9568395707;DYNAMICCOLLECTIONANDTRADING@GMAIL.COM
5732;ABLPV8031G;VIKAS ELECTRICALS & TRADERS,PROP-VIKAS VERMA;715806211000016;VIJ-ASHIYANA,LUCKNOW;RAHUL MARKET,SALEH NAGAR,JAIL ROAD,BANGLA;BAZAR,LUCKNOW;LUCKNOW    ;UTTAR PRADESH;71580;226002;9838593869;NULL
5722;ABCDE1234F;SHYAM ELECTRICAL SALES;716600301000294;VIJ-VIKAS NAGAR,LUCKNOW;KHURRAM NAGAR CHAURAHA;RING ROAD LKO;LUCKNOW    ;UTTAR PRADESH;71660;226022;9455281279;NULL
5999;AMRPA2893A;SHRI SAI BARTAN BHANDAR;716900521000002;VIJ-PILIBHIT,UTTARAPRADESH;H NO 13 MOH - SAHUKARA;PILIBHIT;PILIBHIT   ;UTTAR PRADESH;71690;262001;9639122010;NULL
5999;ACRPG8263E;PRAKASH SAREE GHAR ( PROP.JAI PRAKASH GUPTA );717900301000009;VIJ-BARAGAON;JAI PRAKASH GUPTA ( PRAKASH SAREE GHAR );BARAGAON,VARANASI;BRAGAON,UTTARAPRADESH;UTTAR PRADESH;71790;221204;9919427322;NULL
5651;ALXPC6918K;GAURAV SAREE GHAR;717900301000027;VIJ-BARAGAON;PROP- GAURAV KUMAR CHAURASIYA;VILL BARAGAON POST.BARAGAON VARANASI;BRAGAON,UTTARAPRADESH;UTTAR PRADESH;71790;221204;8187919724;GAURAV771984@GMAIL.COM
5511;ELBPS0811K;AJAY SINGH;717901011003912;VIJ-BARAGAON;S/O-BANS BAHADUR SINGH;BARAGAON VARANASI;BRAGAON,UTTARAPRADESH;UTTAR PRADESH;71790;221204;8808257009;AJ8808257009@GMAIL.COM
8299;AABTM3447L;MUKULARANYAM NIDHI REGD;718301011001121;VIJ- KAMACHHA,VARANASI;UKULARANYAM PREM    SADAN D-57/32;KRISHNAPURI (SIGARA)VARANASI-U.P;VARANASI   ;UTTAR PRADESH;71830;221010;9005734604;NULL
8299;AAJTS2315R;SIDDHAGIRI EDUCATIONAL SOCIETY-MUKULARANYAM ENGLISH SCHOOL;718301011001153;VIJ- KAMACHHA,VARANASI;D 57/32 ,SIDHGIRIBAGH;SIGRA;VARANASI   ;UTTAR PRADESH;71830;221010;9005734604;NULL
5533;AAQCS3424H;GOLDEN SANDS - A UNIT OF SKYHIGH HOMES PVT LTD;718700301000016;VIJ-MALVIYANAGAR;H NO 158;SECTOR 15A;NOIDA      ;UTTAR PRADESH;70270;201301;9899500554;NULL
5311;AOSPK7499D;BAREILLY FOAM (PROP-MOHD. KASHIF);719000301000111;VIJ-SATELITE BUS STAND;GEETA PALACE,MADHUVAN TALKIES,SEMAL KHEDA;SHYAMGANJ,BAREILLY;BAREILLY,U P         ;UTTAR PRADESH;71900;243005;9368806809;NULL
5311;AAAGC0017Q;C S D  A/C;719001010000015;VIJ-SATELITE BUS STAND;6 MDSR;C/O 56 APO, BAREILLY;BAREILLY,U P         ;UTTAR PRADESH;71900;243005;8392888350;S
8062;ABCDE1234F;NATIONAL SUPERSPECIALITY HOSPITAL AND TRAUMA CENTRE;719900571000001;VIJ-AZAMGARH,UP;POLYLTECHNIC CHAURAHA, HARRA KI CHUNGI;SADAR;AZAMGARH   ;UTTAR PRADESH;71990;276001;8808449947;MDANISH2K@YAHOO.CO.IN
5912;ATNPR8375H;JANTA CLINICAL MEDICAL STORE;719900571000002;VIJ-AZAMGARH,UP;PROP. MADHUBALA RAO BRAHMASTHAN PRAHLADNAGAR;SADAR AZAMGARH AZAMGARH;AZAMGARH   ;UTTAR PRADESH;71990;276001;7753843611;SUDHIR.742@GMAIL.COM
5047;AAFFB3586K;BOMBAY SURGICO MEDICAL AGENCY;722506011000003;VIJ-CHITTARANJAN AVENUE;111,C.R.AVENUE,;,KOLKATA;KOLKATA    ;WEST BENGAL;72250;700073;9831205205;NULL
5712;ASTPS6254R;GLOBAL FURNITURE;724806041000001;VIJ-BERHAMPORE;NH 34 CHUANPUR;BERHAMPORE;MURSHIDABAD;WEST BENGAL;72480;742101;9933164704;NULL
4215;AKJPP2383E;SOM ENTERPRISE;730600301000464;VIJ-NAVARANGPURA AHMEDABAD;I/56, SHREE KRISHNA CENTRE,;MITHAKHALI,  NAVRANGPURA, AHMEDABAD;AHMEDABAD  ;GUJARAT;73060;380009;9879204664;VISHALPORIYA@YMAIL.COM
5999;ABGFA9468D;AQUA STUDIO;730600301000576;VIJ-NAVARANGPURA AHMEDABAD;GF 41, CELLAR NARAYAN NIDHI, NR SHRIMAL SOC.,;NAVRANGPURA,;AHMEDABAD  ;GUJARAT;73060;380009;9512651444;INFO@AQUASTUDIO.CO.IN
5533;AADFG1236H;GANESH ENTERPRISE;730900300001645;VIJ-ALKAPURI BARODA;2ND FLOOR           DWARKESH;R C DUTT RD.,       VADODARA;BARODA     ;GUJARAT;73090;390005;9898077187;NULL
5533;ABCDE1234F;COAST GUARD CANTEEN FUND LIQUOR;731201011000054;VIJ-PORBANDAR GUJARAT;NEAR R G T COLLEGE;BIRALA ROAD PORBANDAR;PORBANDAR,GUJARAT    ;GUJARAT;73120;360575;9408429965;NULL
5139;ACJPA9469L;PAKEEZA FOOTWEAR;732300301000051;VIJ-ANAND GUJARAT;STATION ROAD;TUNKI GALI;ANAND,GUJARAT        ;GUJARAT;73230;388001;9879128829;NULL
5541;AKNPK0690D;AAYUSHI  PETROLEUM.;732400301000424;VIJ-GURUKUL AHMEDABAD;IOC DEALER. ASHALALI-VATVA.;S.P.RING ROAD. VATVA;AHMEDABAD  ;GUJARAT;73240;380001;9925758758;NULL
5651;ANEPG8709P;SHRI SWAMINARAYAN FURNISHING;733200301000066;VIJ-BHUJ GUJARAT;47, RAMKRISHNA COLONY, HOSPITAL ROAD,;BHUJ [KUTCH];BHUJ,GUJARAT         ;GUJARAT;73320;370001;9913840143;NULL
5651;AABPP1224E;SUNDARAM;733200301000111;VIJ-BHUJ GUJARAT;PROP. NARAYAN VISHRAM PATEL;WANIYAWAD, BHUJ.;BHUJ,GUJARAT         ;GUJARAT;73320;370001;9427976656;JAYANTNPATEL17@GMAIL.COM
5944;AAKFK7306B;KUMBHAR JEWEL SHOP;733200551000004;VIJ-BHUJ GUJARAT;  SARA  BAZAR;BHUJ , KUTCHH;BHUJ,GUJARAT         ;GUJARAT;73320;370001;9879321492;KUMBHARJEWELLSHOP@GMAIL.COM
5944;AAAFY5447R;YUNUS IBRAHIM AND SONS;733200551000005;VIJ-BHUJ GUJARAT; SHARAF , BAZAR NEAR GHEWALI STREET;BHUJ , KUTCHH;BHUJ,GUJARAT         ;GUJARAT;73320;370001;9879321492;KUMBHARJEWELLSHOP@GMAIL.COM
8299;AACTS2446L;SUDDHANAND RESIDENTIAL POLYTECHNIC;740401011000042;VIJ-CUTTACK ORISSA;NACHHIPUR;PO BHATAPATNA;CUTTACK,ORISSA       ;ORISSA ;74040;752115;9437154858;NULL
8299;AACTS2446L;SUDDHANANDA  ENGINEERING AND RESEARCH CENTRE;740401011001183;VIJ-CUTTACK ORISSA;NACHHIPUR;PO BHATAPATNA BHUBANESWAR KHURDA;CUTTACK,ORISSA       ;ORISSA ;74040;752115;9437154858;SGISKP06@GMAIL.COM
8299;AACTS2446L;SUDDHANANDA SCHOOL OF MANAGEMENT AND COMPUTER SCIENCE;740401011001184;VIJ-CUTTACK ORISSA;NACHHIPUR PO BHATAPATNA;BHUBANESWAR  KHURDA;KHURDA;ORISSA ;74040;752115;9437154858;SGISKP06@GMAIL.COM
5651;DCJPM7319L;GURU KIRPA FAB;750606211000014;VIJ-KAPURTHALA PUNJAB;AMRIT BAZAR;KAPURTHALA;KAPURTHALA,PUNJAB    ;PUNJAB ;75060;144601;9646564572;NULL
5732;AAXPL9499F;GARG SOUND SERVICE;752300301000363;VIJ-MANSA;MOHAN LAL  OLD COURT ROAD MANSA; MANSA;MANSA , PUNJAB;PUNJAB ;75230;151505;9463754514;NULL
5912;ADTPS1246A;CARE WELL MEDICAL STORE;754300301000060;VIJ-JAGRAON,PUNJAB;PROP  UJJAL SINGH RAIKOT ROAD AGWAR GUJJRAN;ADJACENT TO CAREWELL HOSPITAL JAGRAON;JAGRAON,PUNJAB;PUNJAB ;75430;142026;8566987031;NULL
8062;AAHFC6894M;CARE WELL HOSPITAL;754300301000113;VIJ-JAGRAON,PUNJAB;RAIKOT ROAD AGWAR GUJJRAN;NEAR JHANSI CHOWKJAGRAON;JAGRAON,PUNJAB;PUNJAB ;75430;142026;9815000199;NULL
5311;AFVPK0173J;NARANG CONFECTIONERY;758100301000592;VIJ-GURU NANAK DEV UNIVERSITY;PISHORI NAGAR G.T ROAD CHHEHARTA AMRITSAR;PISHORI NAGAR G.T ROAD CHHEHARTA AMRITS;AMRITSAR,PUNJAB      ;PUNJAB ;75810;143001;9872841712;NULL
5732;ACRPT8565G;LAXMI AGENCIES;760306041000009;VIJ-INDORE;87, TARA DEVI ROAD  SIYAGANJ;INDORE;INDORE,MADHYA PRADESH;MADHYA PRADESH;76030;452001;9826318180;NULL
5699;ATOPS5184N;VATIKA COLLECTION;761006211000042;VIJ-SAGAR MADHYA PRADESH;INFRONT OF PATERIYA SWEETS;KATRA BAZAR SAGAR;SAGAR, MADHYA PRADESH;MADHYA PRADESH;76100;470002;9826683822;NULL
7011;AAQPV2105B;MIDLAND HOTEL;761300301000233;VIJ-UJJAIN;6/1 GOPAL MANDIR MARG GALI NO.4;RAMJI KI GALI UJJAIN;UJJAIN     ;MADHYA PRADESH;76130;456006;9111506329;MIDLANDHOTELUJJAIN@GMAIL.COM
5511;AEJPD0640Q;KAILASH AUTO AGENCY;763706211000035;VIJ-TRANSPORT NAGAR KORBA;PLOT NO 11;TRANSPORT NAGAR KORBA;KORBA      ;CHHATTISGARH;76370;495677;9826109907;NULL
4812;AFXPN6575M;RAJ MOBILE SHOP;764000301000145;VIJ-GUNA;PROP NEERAJ JAIN C/O SUGAN CHORAHA;DISTT  GUNA MOB 9753518000;GUNA (MP);MADHYA PRADESH;76400;473001;9179418000;NULL
5912;AEYPM5226Q;ABHINAVA MEDICAL STORE;764300301000011;VIJ-SUNDERNAGAR RAIPUR;ASSHIRWAD HOSPITAL PARISAR;DANGANIYA RAIPUR  CG;RAIPUR,CHATTISGARH   ;CHHATTISGARH;76430;492013;9425208234;NULL
5999;AJAPA2084M;GLOBAL SEAT COVER INDUSTRIES;765007711000001;VIJ-AMBIKAPUR;WARD NO 36;NEAR SARVODAY SCHOOL;AMBIKAPUR;CHHATTISGARH;76500;497001;9425254476;NULL
5311;ABOPM6683J;ANAND SUPARI CENTRE;766100541000001;VIJ-KHARGONE;36/1, RAVINDRA NAGAR, JAWAHAR MARG,;OPP STATE BANK OF INDIA, KHARGONE;KHARGONE;MADHYA PRADESH;76610;451001;9425088892;NULL
5712;AIVPA5823E;NIRMAL FURNISHING;766800301000018;VIJ-ASHOKA GARDEN,BHOPAL;210, ZONE-2, M P NAGAR;BHOPAL;BHOPAL,MADHYA PRADESH;MADHYA PRADESH;76680;462011;9300434717;NULL
5912;AOZPP9673F;RAJ MEDICAL STORES;768500301000005;VIJ-PANNA, MADHYA PRADESH;PROP. PUSHPRAJ PATKAR;HOSPITAL ROAD PANNA;PANNA;MADHYA PRADESH;76850;488001;9425876298;NULL
5944;ALHPS5991C;ANAND JEWELLER & ORNAMENTS PROP. KULDEEP SINGH;770200301000304;VIJ-BADDI;WARD NO-1 ANAND JEWELLERS;SAI ROAD;BADDI,DIST.-SOLAN,HP;HIMACHAL PRADESH;77020;173205;9805076465;NULL
5944;ACOPC1029M;SHREE ANAND JEWELLERS PROP. GURCHARAN SINGH CHANNI;770200301000321;VIJ-BADDI;C/O SHREE ANAND JEWELLERS;NEAR DAWAT CHOWK , SAI ROAD;BADDI,DIST.-SOLAN,HP;HIMACHAL PRADESH;77020;173205;9816990007;NULL
5999;AHMPB8383J;SUNITA ENTERPRISE;800706021000010;VIJ-GOLAGHAT ASSAM;PROP: MR. PARSRAM BINANI;MAIN ROAD;GOLAGHAT,ASSAM       ;ASSAM ;80070;785621;9435053379;NULL
7011;AIBPS6163K;RESORT BORGOS;800706021000040;VIJ-GOLAGHAT ASSAM;PROP.RAMESH SAIKIA;G.F.ROAD GOLAGHAT;GOLAGHAT,ASSAM       ;ASSAM ;80070;785621;9435053317;NULL
5912;ABCDE1234F;WESTERN PHARMACY PROP- ASHIM MITRA;801000301000481;VIJ-MALIGAON - GUWAHATI;MALIGAON CHARIALI;MALIGAON;GUWAHATI   ;ASSAM ;80100;781011;9864012217;NULL
2741;AJEPD5563E;SKYLARK PRINTERS;801100301000015;VIJ-SILPUKHURI GUWAHATI;SKYLARK PRINTERS,OPP.GOSWAMI SERVICE;SILPHKHURI;GUWAHATI   ;ASSAM ;80110;781003;9435190280;NULL
5311;AKKPD3935F;BASUDEV STORE;801100301000434;VIJ-SILPUKHURI GUWAHATI;ANUP DAS, HOUSE NO. 73, NABAGRAHA;ROAD, SILPUKHURI, DIST. KAMRUP (M);GUWAHATI   ;ASSAM ;80110;781003;9854088788;NULL
5999;AABAJ6091J;JANAKALYAN SAMITY;801101011002242;VIJ-DHARAPUR;JANAKALYAN SAMITY,PACHANIAPARA;PO-BONGARA,GUWAHATI;GUWAHATI   ;ASSAM ;80160;781015;7399288463;NULL
4900;AWVPB5170H;J & D BHARATGAS AGENCY;801106361000001;VIJ-SILPUKHURI GUWAHATI;PROP:TEJIMALA DAIMARY,SONAPUR,BARKHAT;PO-SONAPUR,PS-SONAPUR,DIST-KAMRUP;GUWAHATI   ;ASSAM ;80110;782402;8473923697;JDB_SONAPUR@BHARATGAS.IN
5947;ANDPB3778N;SHIVAM STORE;801900301000067;VIJ-GANESHGURI GUWAHATI;SURVEY AJANTA PATH;OPP TRIPURA BHAWAN;GUWAHATI   ;ASSAM ;80190;781028;9706122481;NULL
5533;AAKCS9406R;SILK ROUTE HOTEL & RESORTS PVT LTD;801900541000016;VIJ-GANESHGURI GUWAHATI;STAR ENCLAVE G N B ROAD PANBAZAR;GUWAHATI;GUWAHATI   ;ASSAM ;80190;781001;9435042666;HOTELSILKROUTE@YAHOO.IN
5912;DJSPS7910B;SHIVANI;801906211000003;VIJ-GANESHGURI GUWAHATI;BASISHA ROAD;GUWAHATI;GUWAHATI   ;ASSAM ;80190;781006;9864099611;NULL
5311;ARBPD1451G;BIJAY STEEL & PLASTIC FURNITURE;810400301000061;VIJ-PURANA BAZAR,DIMAPUR;BIJAY STEEL FURNITURE;PURANA BAZAR;DIMAPUR,NAGALAND     ;NAGALAND;81040;797116;9436019377;NULL
5311;ABCDE1234F;JFK JUST FOR KIDZ;810406211000010;VIJ-PURANA BAZAR,DIMAPUR;H/NO 77 MIDLAND SEWAK GATE NEAR MGM SCHOOL;DIMAPUR;DIMAPUR,NAGALAND     ;NAGALAND;81040;797112;7005501276;NULL
7631;AAKFV5296P;VISHAL JEWELLERS;831200301000196;VIJ-SONEPAT;ASHOK NAGAR, JANDI WALI GALI KACHEY QUARTER;SONEPAT;SONEPAT    ;HARYANA;83120;131001;9034225870;JKSEHGAL.VSJ98@GMAIL.COM
5631;AAOFB5586E;BARBEE COLLECTION;832806041000005;VIJ-KURUKSHETRA;SALARPUR ROAD, NEAR DAYANAND MAHILA;MAHAVIDYALA, KURUKSHETRA;KURUKSHETRA;HARYANA;83280;136118;9896101215;NULL
5912;BAQPK1229N;SHREE BALAJEE AUSHDHALAYA;840106211000008;VIJ-DARBHANGA BIHAR;PROP AYUSH KEDIA,M Y HOSPITAL;ALLALPATTI,LAHERIASARAI,DARBHANGA;DARBHANGA,BIHAR      ;BIHAR;84010;846001;9973333013;NULL
5912;ABTPD4456B;SHREE SHYAM MEDICAL HALL;840400301000157;VIJ-RANCHI JHARKHAND;SHOP NO. 4,LAKE VIEW APARTMENT;NAGARMAL MODI PATH,RANCHI 834001;RANCHI,JHARKHAND     ;JHARKHAND ;84040;834001;9334725601;NULL
8299;AACTS5077P;ST. XAVIER'S JUNIOR SCHOOL;840600301000180;VIJ-MUZAFFARPUR BIHAR;C/O AMITABH CHANDRA, NEAR DEVI MANDIR,;CLUB ROAD RAMNA, MUZAFFARPUR;MUZAFFARPUR,BIHAR    ;BIHAR;84060;842002;9431238476;AMITABHCHANDRA@REDIFFMAIL.COM
8299;AACTS5077P;"ST.XAVIER""S KINDERGARTEN";840600301000233;VIJ-MUZAFFARPUR BIHAR;C/O AMITABH CHANDRA, NEAR DEVI MANDIR,;CLUB ROAD RAMNA, MUZAFFARPUR;MUZAFFARPUR,BIHAR    ;BIHAR;84060;842002;9431238476;NULL
5511;AAMFN1849E;NORTH BIHAR AUTO SERVICE;840600301000252;VIJ-MUZAFFARPUR BIHAR; VILL  HARCHANDA                    PS KANTI;MUZAFFARPUR;MUZAFFARPUR,BIHAR    ;BIHAR;84060;842001;9934215786;NORTHBIHARAUTOSERVICE@GMAIL.COM
5499;AESPK2976F;BHARAT DAIRY UDYOG;840606041000015;VIJ-MUZAFFARPUR BIHAR;DIWAN ROAD KALYANI;MUZAFFARPUR;MUZAFFARPUR,BIHAR    ;BIHAR;84060;842002;9835626342;NULL
5533;ATEPD4688A;HOTEL BLUE SKY;840606211000076;VIJ-MUZAFFARPUR BIHAR;PROP SHRI DIVYENDU PRAKASH,NH 28,PAHAPUR;MINAPUR,PO DANAPUR,DIST MUZAFARPUR;MUZAFFARPUR,BIHAR    ;BIHAR;84060;842001;9504292191;NULL
5311;ACPPK8068H;SHREYA ENTERPRISES-PROP-SUKANT KUMA;840906211000013;VIJ-KADAM KUAN PATNA;CHURI MARKET        SADAR BAZAR;KADAM KUAN          PATNA;PATNA      ;BIHAR;84090;800003;9931829440;NULL
5311;AIIPG6237H;SRI RAM TRADING COMPANY;841106211000007;VIJ-RAMGARH, JHARKHAND;BAZAR PRANGAN,SHOP NO-D/13;RAMGARH;RAMGARH, JHARKHAND;JHARKHAND ;84110;829122;9771690923;NULL
5611;AAAFD7475J;DHIRAJLAL ZAVERCHAND;841206211000006;VIJ-SAKCHI(JAMSHEDPUR);14/C BLOCK NO 3 SAKCHI;JAMSHEDPUR;JAMSHEDPUR,JHARKHAND ;JHARKHAND ;84120;831001;9934588442;ABHIDOSHI21@YAHOO.COM
5732;BPWPA9070A;GAURAV SALES;841206211000016;VIJ-SAKCHI(JAMSHEDPUR);SURAJ TOWER, 58-B, PENNAR ROAD;SAKCHI;JAMSHEDPUR,JHARKHAND ;JHARKHAND ;84120;831001;9334536361;NULL
5311;ANQPK7527B;LICHCHAVI GAS AGENCY;841300301000248;VIJ-HAJIPUR;HATHSARGANJ, NEAR NAKA NO 3;HAJIPUR, VAISHALI;HAJIPUR, BIHAR;BIHAR;84130;844101;9060887788;LICHCHAVIINDIANE@GMAIL.COME
5732;BDYPP4881L;DIGITAL TECHNO;841400301000348;VIJ-BHAGALPUR;PROP SUBHASH PASWAN AT  RATAN SINGH COMPLEX;GURUDWARA ROAD BHAGALPUR;BHAGALPUR  ;BIHAR;84140;812002;9576895123;NULL
5511;BDWPK1106P;TRIMURTI MOTORS;841600301000061;VIJ-JEHANABAD;VASUDEV BHAWAN HORILGANJ;P.G.ROIAD-JEHANABAD;JEHANABAD;BIHAR;84160;804408;9771275145;N
5311;AEBPP8963Q;NATH MEDICAL HALL;842600301000080;VIJ-SITMARHI BRANCH;NATH MEDICAL HALL PROP KAILASH PRASAD;HOSPITAL ROAD SITAMARHI;SITAMARHI  ;BIHAR;84260;843302;9473268826;NULL
5732;AZOPJ5508K;VINAYAK SERVICES;844106211000005;VIJ-MUNGER BIHAR;PROP-VINAYAK JOSHI,GULZAR POKHAR;NEAR KALI STHAN,MUNGER;MUNGER     ;BIHAR;84410;811201;8084068430;NULL
5940;ACOPB6296R;ARUN SPORT ENTERPRISE;850100301000061;VIJ-G S ROAD SHILLONG;ARUN SPORT ENTERPRISE BEHIND MTC BUILD;JAIL ROAD ,TREVORS LANE SHILLONG;SHILLONG   ;MEGHALAYA;85010;793001;8794747783;NULL
8062;AAZPW8045F;SANGAI HEALTH CARE AND RESEARCH CENTRE;860100301000145;VIJ-IMPHAL MANIPUR;URIPOK BACHASPATI LEIKAI;LAMPHEL, IMPHAL;IMPHAL,MANIPUR       ;MANIPUR;86010;795001;9436032276;WANGKJAM1@YAHOO.CO.IN
5511;BVCPP1068H;KINE NANE ENTERPRISE;880500301000070;VIJ-PASIGHAT;PROP.- NEIMANG ERING W/O RINKU PAUL;BANSKOTA, PASIGHAT MARKET, DIST.- EAST SIANG;PASIGHAT,ARUNACHALAPRADESH;ARUNACHAL PRADESH;88050;791102;9862738821;KINE.PASIGHAT@TVSMDEALERS.CO.IN
5732;BHRPR6222C;NOKIA HOUSE;880506211000027;VIJ-PASIGHAT;PROP.- MARPI APUM W/O RENNY APUM;NH-52, DAI BUILDING, NEAR FISH MARKET;PASIGHAT,ARUNACHALAPRADESH;ARUNACHAL PRADESH;88050;791102;7005106366;RENNY.APUM@REDIFFMAIL.COM
