<?xml version="1.0" standalone="no"?>
<!DOCTYPE svg PUBLIC "-//W3C//DTD SVG 20010904//EN"
 "http://www.w3.org/TR/2001/REC-SVG-20010904/DTD/svg10.dtd">
<svg version="1.0" xmlns="http://www.w3.org/2000/svg"
 width="1242.000000pt" height="512.000000pt" viewBox="0 0 1242.000000 512.000000"
 preserveAspectRatio="xMidYMid meet">
<metadata>
Created by potrace 1.15, written by Peter Selinger 2001-2017
</metadata>
<g transform="translate(0.000000,512.000000) scale(0.100000,-0.100000)"
fill="#000000" stroke="none">
<path d="M300 4997 c-19 -6 -54 -30 -77 -53 -109 -110 -69 -287 76 -339 39
-13 186 -16 1144 -22 l1099 -6 13 -21 c8 -12 219 -480 470 -1041 251 -561 469
-1036 484 -1055 84 -107 270 -107 352 0 14 19 140 289 278 600 139 311 256
568 259 572 4 4 122 -248 261 -560 140 -312 264 -580 274 -597 44 -66 102 -95
191 -95 49 0 71 6 112 29 28 16 58 40 66 53 8 13 239 525 513 1138 l497 1114
-4 62 c-5 82 -38 132 -109 168 -60 30 -129 34 -194 11 -85 -30 -89 -38 -497
-950 -209 -467 -382 -853 -386 -857 -4 -4 -122 250 -262 565 -281 631 -286
639 -383 666 -98 28 -216 -7 -261 -77 -14 -20 -136 -287 -272 -592 -136 -305
-250 -559 -254 -563 -6 -7 -657 1425 -760 1673 -37 87 -86 143 -139 159 -54
16 -316 20 -1456 25 -717 3 -1010 1 -1035 -7z"/>
<path d="M6971 4985 c-51 -16 -107 -66 -127 -112 -12 -27 -14 -227 -14 -1190
l0 -1158 23 -40 c12 -21 42 -53 65 -70 41 -28 50 -30 132 -30 82 0 91 2 132
30 23 17 54 51 68 75 l25 45 3 1133 c2 807 -1 1146 -9 1175 -15 58 -90 130
-152 145 -58 15 -91 14 -146 -3z"/>
<path d="M8096 4988 c-51 -14 -118 -81 -134 -134 -9 -32 -12 -307 -12 -1173 0
-1000 2 -1136 16 -1169 34 -83 110 -131 207 -132 66 0 107 15 155 55 72 60 66
-23 72 1110 l5 1020 291 0 290 0 76 -38 c88 -43 146 -102 187 -187 22 -47 26
-68 26 -150 0 -89 -2 -99 -34 -158 -39 -72 -98 -130 -170 -166 -59 -30 -69
-31 -152 -10 -77 20 -153 13 -224 -20 -74 -34 -111 -70 -146 -142 -76 -154
-17 -325 139 -401 50 -24 69 -28 147 -28 79 0 97 4 148 29 68 33 77 31 159
-43 83 -74 93 -103 108 -327 21 -322 97 -471 266 -523 60 -19 105 -20 926 -25
475 -3 1032 -8 1238 -12 428 -7 441 -6 506 60 86 85 85 215 -2 303 -32 32 -53
43 -95 52 -36 7 -444 13 -1212 17 l-1159 6 -8 22 c-4 11 -13 100 -18 196 -14
254 -55 360 -190 496 l-64 65 86 89 c67 71 95 110 131 183 60 122 78 197 78
327 -1 317 -166 585 -448 725 -169 84 -196 87 -705 91 -298 2 -458 -1 -484 -8z"/>
<path d="M10610 505 l0 -255 710 0 710 0 0 255 0 255 -710 0 -710 0 0 -255z
m1195 53 c4 27 12 42 21 42 12 0 14 -11 8 -62 -3 -35 -10 -67 -14 -71 -4 -4
-23 10 -43 33 -21 22 -39 40 -42 40 -3 0 -5 -15 -5 -32 0 -18 -4 -38 -8 -44
-10 -14 -64 -12 -70 4 -5 17 -42 15 -63 -4 -10 -9 -22 -13 -28 -10 -9 6 67
146 80 146 3 0 14 -30 26 -67 22 -74 28 -71 38 21 l7 58 43 -48 42 -49 8 43z
m-917 30 c-3 -7 -17 -14 -31 -16 -32 -4 -36 -19 -5 -24 32 -5 33 -26 1 -30
-38 -4 -45 -38 -8 -38 41 0 24 -24 -19 -28 l-38 -3 6 73 c3 40 3 67 0 61 -3
-7 -14 -13 -25 -13 -25 0 -24 -16 1 -23 28 -7 25 -27 -5 -27 -19 0 -25 -5 -25
-22 0 -13 -4 -29 -9 -37 -13 -20 -32 -4 -27 22 3 12 8 43 11 70 l6 47 85 0
c64 0 85 -3 82 -12z m83 1 c11 -6 24 -20 29 -32 8 -20 9 -18 9 11 1 31 2 32
47 32 50 0 59 -22 11 -28 -32 -4 -36 -19 -5 -24 32 -5 33 -26 1 -30 -38 -4
-45 -38 -8 -38 41 0 25 -24 -18 -28 -32 -3 -37 0 -37 19 0 21 -1 22 -20 4 -11
-10 -36 -18 -57 -19 l-38 -1 3 50 c4 82 9 95 38 95 14 0 34 -5 45 -11z m207
-1 c16 -16 15 -43 -2 -58 -12 -9 -13 -17 -4 -36 6 -13 15 -24 19 -24 4 0 24
29 44 65 20 36 39 65 43 65 4 0 16 -30 27 -67 18 -63 20 -66 26 -38 4 17 7 47
8 68 1 27 5 37 17 37 14 0 16 -9 11 -60 -5 -54 -3 -60 14 -60 10 0 19 -7 19
-15 0 -20 -99 -19 -107 2 -7 18 -59 17 -66 -1 -10 -25 -67 -17 -80 11 l-11 24
-13 -26 c-20 -38 -35 -21 -28 33 11 88 13 92 43 92 15 0 33 -5 40 -12z"/>
<path d="M9864 579 c-6 -41 -10 -49 -23 -43 -36 15 -62 15 -85 1 -52 -34 -59
-152 -12 -196 19 -18 33 -22 80 -19 l56 3 0 153 c0 83 -2 152 -5 152 -2 0 -7
-23 -11 -51z m-22 -76 c13 -12 18 -31 18 -74 0 -51 -3 -61 -25 -75 -51 -33
-98 4 -98 78 0 74 58 114 105 71z"/>
<path d="M10040 476 c0 -97 4 -156 10 -156 6 0 10 5 10 10 0 7 6 7 19 0 30
-16 76 -12 102 9 19 15 24 30 27 84 4 63 3 68 -26 97 -34 33 -66 38 -100 14
-22 -15 -22 -15 -22 35 0 27 -4 53 -10 56 -7 4 -10 -48 -10 -149z m131 27 c21
-25 18 -116 -5 -142 -24 -26 -60 -27 -86 -1 -25 25 -27 105 -4 138 19 27 75
30 95 5z"/>
<path d="M8447 613 c-11 -10 -8 -293 3 -293 5 0 10 26 12 58 l3 57 63 5 c74 6
102 30 102 87 0 49 -15 71 -58 83 -42 11 -115 13 -125 3z m106 -23 c25 0 57
-36 57 -63 0 -39 -34 -61 -93 -62 l-52 0 -3 62 c-3 65 6 76 53 67 11 -2 28 -4
38 -4z"/>
<path d="M8714 540 c-35 -14 -54 -50 -54 -103 0 -81 29 -116 97 -117 34 0 46
5 67 31 46 54 31 155 -25 185 -31 16 -54 17 -85 4z m90 -39 c42 -46 23 -144
-30 -157 -75 -19 -125 84 -73 150 25 32 77 36 103 7z"/>
<path d="M9231 536 c-34 -19 -50 -54 -51 -109 0 -41 5 -53 29 -78 36 -35 87
-39 122 -9 28 22 19 25 -27 8 -26 -9 -38 -9 -58 1 -22 12 -46 49 -46 71 0 5
35 10 78 12 l77 3 -2 34 c-2 60 -70 97 -122 67z"/>
<path d="M9561 536 c-34 -19 -50 -54 -51 -109 0 -41 5 -53 29 -78 37 -36 97
-41 126 -9 21 23 14 25 -31 8 -26 -9 -38 -9 -58 1 -22 12 -46 49 -46 71 0 5
35 10 78 12 l77 3 -2 34 c-2 60 -70 97 -122 67z"/>
<path d="M8892 468 c33 -117 42 -143 53 -143 6 0 21 32 35 72 30 85 35 92 44
58 13 -52 48 -135 56 -135 5 0 20 37 34 83 38 126 41 140 26 135 -7 -2 -23
-36 -34 -75 -12 -39 -24 -74 -27 -77 -3 -4 -17 30 -30 74 -13 44 -29 80 -36
80 -6 0 -24 -37 -39 -82 l-28 -83 -25 83 c-14 46 -30 82 -37 82 -9 0 -7 -19 8
-72z"/>
</g>
</svg>
